ALA’s Data Cleaning Book - Appendix B — Big data
…
…and perform some common operations on it before finally bringing it into memory with collect().

pardalotes |> 
  select(species, year, cl22) |> 
  filter(species != "NA", cl22 != "NA")|> 
  group_by(species, year, cl22) |> 
  summarise(count = n(), .groups = "drop") |>
  collect()

# A tibble: 99 × 4
   species               year cl22                         count
   <chr>                <int> <chr>                        <int>
 1 Pardalotus striatus   2022 Victoria                     12880
 2 Pardalotus striatus   2020 Australian Capital Territory  3552
 3 Pardalotus punctatus  2020 New South Wales               7988
 4 Pardalotus striatus   2021 Queensland                   15606
 5 Pardalotus striatus   2020 New South Wales               6323
 6 Pardalotus punctatus  2022 Victoria                     18632
 7 Pardalotus striatus   2021 South Australia               2847
 8 Pardalotus punctatus  2021 South Australia                898
 9 Pardalotus striatus   2020 Queensland                   14446
10 Pardalotus striatus   2021 Australian Capital Territory  4048
# ℹ 89 more rows
…
