Appendix D — Joins – Cleaning Biodiversity Data in R
…
We created a custom DOI for our download by using atlas_occurrences(mint_doi = TRUE).

D.1 Keys

Joining dataframes relies on setting a key—one or more columns that exist in a primary table that correspond to one or more columns in a secondary table. Two datasets that we intend to join are matched according to the designated key.

As a simple example, let’s say we want to add complete taxonomic information to our starlings dataframe, which contains occurrence records with some, but not all, levels of taxonomic information. starlings_taxonomy contains complete taxonomic information for Sturnidae.

starlings
starlings_taxonomy

starlings

# A tibble: 3,944 × 8
   genus        species         scientificName cl22   year month decimalLatitude
   <chr>        <chr>           <chr>          <chr> <dbl> <dbl>           <dbl>
 1 Acridotheres Acridotheres t… Acridotheres … Quee…  2015     9           -16.9
 2 Acridotheres Acridotheres t… Acridotheres … Quee…  2015     9           -16.9
 3 Acridotheres Acridotheres t… Acridotheres … New …  2015     9           -33.8
 4 Acridotheres Acridotheres t… Acridotheres … Vict…  2015     9           -37.7
 5 Acridotheres Acridotheres t… Acridotheres … Aust…  2015     9           -35.2
 6 Acridotheres Acridotheres t… Acridotheres … Quee…  2015     9           -27.2
 7 Acridotheres Acridotheres t… Acridotheres … Vict…  2015     9           -38.0
 8 Acridotheres Acridotheres t… Acridotheres … Quee…  2015     9           -16.9
 9 Acridotheres Acridotheres t… Acridotheres … New …  2015     9           -33.9
10 Acridotheres Acridotheres t… Acridotheres … Aust…  2015     9           -35.3
# ℹ 3,934 more rows
# ℹ 1 more variable: decimalLongitude <dbl>
…
