ALA Data Cleaning - 3 Download occurrence data
…
We will be downloading all occurrences for the African Elephant from GBIF. This may take a while as it is around 12,000 records. Once downloaded, you can save the records locally in your desired format. For larger downloads, we recommend saving the data as parquets using arrow::write_parquet

galah_config(email = Sys.getenv("ALA_EMAIL"),
             username = Sys.getenv("GBIF_USER"),
             password = Sys.getenv("GBIF_PWD"),
             atlas = "Global")

african_ele <- galah_call() %>% 
  galah_identify("Loxodonta africana") %>% 
  atlas_occurrences()

arrow::write_parquet(african_ele, "data/gbif/elephant")

# A tibble: 12,537 × 50
      gbifID datasetKey     occurrenceID kingdom phylum class order family genus
 *     <dbl> <chr>          <chr>        <chr>   <chr>  <chr> <chr> <chr>  <chr>
 1 924537719 95f132fe-f762… 73e088f2-f8… Animal… Chord… Mamm… Prob… Eleph… Loxo…
 2 924537718 95f132fe-f762… 73e0ad3c-f8… Animal… Chord… Mamm… Prob… Eleph… Loxo…
 3 924537717 95f132fe-f762… 73f0f6ec-f8… Animal… Chord… Mamm… Prob… Eleph… Loxo…
 4 923926679 50c9509d-22c7… http://www.… Animal… Chord… Mamm… Prob… Eleph… Loxo…
 5 923924124 50c9509d-22c7… http://www.… Animal… Chord… Mamm… Prob… Eleph… Loxo…
 6 922237429 6ac3f774-d9fb… <NA>         Animal… Chord… Mamm… Prob… Eleph… Loxo…
 7 922237412 6ac3f774-d9fb… <NA>         Animal… Chord… Mamm… Prob… Eleph… Loxo…
 8 922237188 6ac3f774-d9fb… <NA>         Animal… Chord… Mamm… Prob… Eleph… Loxo…
 9 922237135 6ac3f774-d9fb… <NA>         Animal… Chord… Mamm… Prob… Eleph… Loxo…
10 922237121 6ac3f774-d9fb… <NA>         Animal… Chord… Mamm… Prob… Eleph… Loxo…
# ℹ 12,527 more rows
# ℹ 41 more variables: species <chr>, infraspecificEpithet <chr>,
#   taxonRank <chr>, scientificName <chr>, verbatimScientificName <chr>,
#   verbatimScientificNameAuthorship <chr>, countryCode <chr>, locality <chr>,
#   stateProvince <chr>, occurrenceStatus <chr>, individualCount <dbl>,
#   publishingOrgKey <chr>, decimalLatitude <dbl>, decimalLongitude <dbl>,
#   coordinateUncertaintyInMeters <dbl>, coordinatePrecision <dbl>, …

3.3.2.2 Regional node via galah

In order to access data from the Australia node, we will need to reconfigure galah so that our query points to Australia. After that, we will download all records for the Pink Robin.

galah_config(email = Sys.getenv("ALA_EMAIL"), 
             atlas = "Australia")

pink_robin <- galah_call() %>% 
  galah_identify("Petroica rodinogaster") %>% 
  atlas_occurrences

# A tibble: 11,992 × 8
   decimalLatitude decimalLongitude eventDate           scientificName          
 *           <dbl>            <dbl> <dttm>              <chr>                   
 1           -43.7             146. NA                  Petroica (Erythrodryas)…
 2           -43.7             146. NA                  Petroica (Erythrodryas)…
 3           -43.7             146. 1971-02-03 14:00:00 Petroica (Erythrodryas)…
 4           -43.7             146. 2020-10-07 02:39:00 Petroica (Erythrodryas)…
 5           -43.7             146. 2015-09-22 14:00:00 Petroica (Erythrodryas)…
 6           -43.6             146. 2002-01-03 13:00:00 Petroica (Erythrodryas)…
 7           -43.6             146. NA                  Petroica (Erythrodryas)…
 8           -43.6             146. 2020-12-27 13:00:00 Petroica (Erythrodryas)…
 9           -43.6             146. 2021-03-07 13:00:00 Petroica (Erythrodryas)…
10           -43.6             146. 2020-12-26 13:00:00 Petroica (Erythrodryas)…
# ℹ 11,982 more rows
# ℹ 4 more variables: taxonConceptID <chr>, recordID <chr>,
#   dataResourceName <chr>, occurrenceStatus <chr>

3.3.3 Spatial focus

3.4 Choosing specific data columns

By default, atlas_occurrences will return a tibble with a selection of columns containing taxonomic and spatial data as well as other metadata. Alternatively, you can use galah_select to subset the columns that are relevant for your work. To see all available fields you can choose from:

show_all(fields) 

# A tibble: 611 × 4
   id                    description                                 type  link 
   <chr>                 <chr>                                       <chr> <chr>
 1 abcdTypeStatus        ABCD field in use by herbaria               fiel… <NA> 
 2 acceptedNameUsage     http://rs.tdwg.org/dwc/terms/acceptedNameU… fiel… <NA> 
 3 acceptedNameUsageID   http://rs.tdwg.org/dwc/terms/acceptedNameU… fiel… <NA> 
 4 accessRights          <NA>                                        fiel… <NA> 
 5 assertionUserId       User ID of the person who has made an asse… fiel… <NA> 
 6 assertions            A list of all assertions (user and system … fiel… <NA> 
 7 associatedMedia       http://rs.tdwg.org/dwc/terms/associatedMed… fiel… <NA> 
 8 associatedOccurrences http://rs.tdwg.org/dwc/terms/associatedOcc… fiel… <NA> 
 9 associatedOrganisms   http://rs.tdwg.org/dwc/terms/associatedOrg… fiel… <NA> 
10 associatedReferences  http://rs.tdwg.org/dwc/terms/associatedRef… fiel… <NA> 
# ℹ 601 more rows
…
project_fields <- c("recordID",
                    "eventDate",
                    "year", 
                    "basisOfRecord", 
                    "occurrenceStatus",
                    "scientificName",
                    "decimalLatitude",
                    "decimalLongitude")

pink_robin_projfields <- galah_call() %>% 
  galah_identify("Petroica rodinogaster") %>% 
  galah_select(project_fields) %>% 
  atlas_occurrences()

# A tibble: 11,992 × 8
   recordID             eventDate            year basisOfRecord occurrenceStatus
 * <chr>                <dttm>              <dbl> <chr>         <chr>           
 1 000fc2ef-b696-4576-… 1976-12-18 13:00:00  1976 HUMAN_OBSERV… PRESENT         
 2 001410fd-3a01-43aa-… 1978-05-23 14:00:00  1978 HUMAN_OBSERV… PRESENT         
 3 00164a76-0b3a-4b44-… 1977-12-15 13:00:00  1977 HUMAN_OBSERV… PRESENT         
 4 001bfca5-4197-40a6-… 1940-12-31 14:00:00  1941 OBSERVATION   PRESENT         
 5 001e33bd-bb15-4384-… 2002-10-17 14:00:00  2002 HUMAN_OBSERV… PRESENT         
 6 0021cc7c-a371-4af6-… 2016-04-09 14:00:00  2016 OCCURRENCE    PRESENT         
 7 00287e24-87b8-429a-… 2021-01-14 13:00:00  2021 HUMAN_OBSERV… PRESENT         
 8 002e05a7-b1bf-4eba-… 2000-07-24 14:00:00  2000 OBSERVATION   PRESENT         
 9 00327fc2-ae67-467b-… 1983-11-23 13:00:00  1983 PRESERVED_SP… PRESENT         
10 0035016f-ae80-494a-… NA                     NA HUMAN_OBSERV… PRESENT         
# ℹ 11,982 more rows
# ℹ 3 more variables: scientificName <chr>, decimalLatitude <dbl>,
#   decimalLongitude <dbl>
…
pink_robin_tractable <- galah_call() %>% 
  galah_identify("Petroica rodinogaster") %>% 
  galah_filter(basisOfRecord == tractable_records) %>% 
  atlas_occurrences()

3.5.0.3 Assertions

Data infrastructures use assertions to internally grade the quality, completeness and consistency of each occurrence record. Assertions take values of either 1 or 0, indicating the presence or absence of the data quality issue. Note that assertions may vary depending what atlas you have configured to. You can see the available assertions and their descriptions using:

show_all("assertions") 

# A tibble: 117 × 4
   id                                 description                 category type 
   <chr>                              <chr>                       <chr>    <chr>
 1 AMBIGUOUS_COLLECTION               Ambiguous collection        Warning  asse…
 2 AMBIGUOUS_INSTITUTION              Ambiguous institution       Warning  asse…
 3 BASIS_OF_RECORD_INVALID            Basis of record badly form… Warning  asse…
 4 biosecurityIssue                   Biosecurity issue           Error    asse…
 5 COLLECTION_MATCH_FUZZY             Collection match fuzzy      Warning  asse…
 6 COLLECTION_MATCH_NONE              Collection not matched      Warning  asse…
 7 CONTINENT_COUNTRY_MISMATCH         Continent country mismatch  Warning  asse…
 8 CONTINENT_DERIVED_FROM_COORDINATES Continent derived from coo… Warning  asse…
 9 CONTINENT_INVALID                  Continent invalid           Warning  asse…
10 COORDINATE_ACCURACY_INVALID        Coordinate accuracy invalid Warning  asse…
# ℹ 107 more rows
…
