ALA Data Cleaning - 4 Precleaning
…
4.3.1 String inconsistencies

String inconsistencies include mispellings, capitalisation errors, misplaced punctuations or trailing white spaces. We will use the janitor R package to explore whether our data has any of these issues. The function tabyl will compute a counts and percent of total rows for each unique value.

We recommend tabyl-ing any character strings that are relevant to your project. For example, here is the stateProvince in alphabetical order.

library(janitor)

african_ele %>%
  pull(stateProvince) %>% 
  tabyl() %>% 
  tibble() %>% 
  print(n = 20)

# A tibble: 183 × 4
   .                     n   percent valid_percent
   <chr>             <int>     <dbl>         <dbl>
 1 Agadez                1 0.0000798      0.000112
 2 Al Qahirah            1 0.0000798      0.000112
 3 Alibori             601 0.0479         0.0670  
 4 Arusha              231 0.0184         0.0258  
 5 Arusha Region         1 0.0000798      0.000112
 6 Atacora             366 0.0292         0.0408  
 7 Atakora             239 0.0191         0.0267  
 8 Balaka                7 0.000558       0.000781
 9 Bassila               1 0.0000798      0.000112
10 Batha                 1 0.0000798      0.000112
11 Bauchi                3 0.000239       0.000335
12 Bengo                 3 0.000239       0.000335
13 Borgou                7 0.000558       0.000781
14 Budongo Forest        1 0.0000798      0.000112
15 Bushenyi             61 0.00487        0.00680 
16 Cabo Delgado          2 0.000160       0.000223
17 Cape Prov.            2 0.000160       0.000223
18 Cape Province         1 0.0000798      0.000112
19 Central             113 0.00901        0.0126  
20 Central Equatoria     2 0.000160       0.000223
# ℹ 163 more rows
…
# Its good practice to check the other values were not affected by your corrections
# Here we are removing the NA with `drop_na` and subsetting unique rows with `distinct`
african_ele_2 %>% 
  select(starts_with("stateProvince")) %>% 
  drop_na() %>% 
  distinct() 

# A tibble: 182 × 2
   stateProvince    stateProvince_clean
   <chr>            <glue>             
 1 Southern         Southern           
 2 Taita Taveta     Taita Taveta       
 3 Mara             Mara               
 4 Arusha           Arusha             
 5 Simiyu           Simiyu             
 6 Morogoro         Morogoro           
 7 Mashonaland West Mashonaland West   
 8 Mpumalanga       Mpumalanga         
 9 KwaZulu-Natal    KwaZulu-Natal      
10 Manicaland       Manicaland         
# ℹ 172 more rows

# Final check
# Check with the original code that detected the issue
african_ele_2 %>%
  pull(stateProvince_clean) %>% 
  tabyl() %>% 
  tibble() %>% 
  print(n = 20)

# A tibble: 181 × 4
   .                     n   percent valid_percent
   <glue>            <int>     <dbl>         <dbl>
 1 Agadez                1 0.0000798      0.000112
 2 Al Qahirah            1 0.0000798      0.000112
 3 Alibori             601 0.0479         0.0670  
 4 Arusha              231 0.0184         0.0258  
 5 Arusha Region         1 0.0000798      0.000112
 6 Atacora             366 0.0292         0.0408  
 7 Atakora             239 0.0191         0.0267  
 8 Balaka                7 0.000558       0.000781
 9 Bassila               1 0.0000798      0.000112
10 Batha                 1 0.0000798      0.000112
11 Bauchi                3 0.000239       0.000335
12 Bengo                 3 0.000239       0.000335
13 Borgou                7 0.000558       0.000781
14 Budongo Forest        1 0.0000798      0.000112
15 Bushenyi             61 0.00487        0.00680 
16 Cabo Delgado          2 0.000160       0.000223
17 Cape Province         3 0.000239       0.000335
18 Central             113 0.00901        0.0126  
19 Central Equatoria     2 0.000160       0.000223
20 Central Province      4 0.000319       0.000446
# ℹ 161 more rows
…
