ALA Data Cleaning - 5 Taxonomy
…
character(0)

We can confirm that there are no upper case matches by subsetting unique values that have lower case letters to see what is going on. This shows us that Insecta is inputted entirely in lowercase.

str_subset(unique(bees$class), "[:lower:]") 

[1] "insecta"

We can correct the lower case formatting as below, remember to check the fix before overwriting/removing the erroneous column(s)

bees |> 
  mutate(class_corrected = str_to_sentence(class)) |>
  select(starts_with("class"))

# A tibble: 1,139 × 2
   class   class_corrected
   <chr>   <chr>          
 1 insecta Insecta        
 2 insecta Insecta        
 3 insecta Insecta        
 4 insecta Insecta        
 5 insecta Insecta        
 6 insecta Insecta        
 7 insecta Insecta        
 8 insecta Insecta        
 9 insecta Insecta        
10 insecta Insecta        
# … with 1,129 more rows
…
5.1.2 Seperators

In a taxonomic data, separators such as, spaces and underscore are found in scientific names and are used to delineate the genus and species name. While it is personal choice which separator you use, it is good practice to be consistent with your choice. Consistency ensures that unique values of scientific name truly reflects unique species and not due to inconsistencies.

Try tabyl-ing your taxonomic columns to check if you have any inconsistencies first

library(janitor)

plants |> 
  pull(scientific_name) |> 
  tabyl() |> 
  tibble()

# A tibble: 623 × 3
   `pull(plants, scientific_name)`         n  percent
   <chr>                               <int>    <dbl>
 1 Acacia asparagoides                     2 0.000962
 2 Acacia barakulensis                     1 0.000481
 3 Acacia barringtonensis                  2 0.000962
 4 Acacia beadleana                        1 0.000481
 5 Acacia betchei                          6 0.00289 
 6 Acacia blayana                          2 0.000962
 7 Acacia brunioides                       1 0.000481
 8 Acacia brunioides subsp. brunioides     6 0.00289 
 9 Acacia brunioides subsp. granitica      1 0.000481
10 Acacia bulgaensis                       3 0.00144 
# … with 613 more rows

Consistent taxonomic formatting may not be an issue if you are downloading data from one single source such as the ALA where scientific names are already formatted consistently e.g. “Moloch horridus”. This may not be the case when consolidating data from multiple sources.

Below is code to create an underscore scientific name from one that is separated with a space. Remember to check your changes

plants_updated <- plants |> 
  mutate(scientific_name_undersc = str_replace_all(scientific_name, " ", "_")) 

plants_updated |> 
  pull(scientific_name_undersc) |> 
  tabyl() |> 
  tibble()

# A tibble: 623 × 3
   `pull(plants_updated, scientific_name_undersc)`     n  percent
   <chr>                                           <int>    <dbl>
 1 Acacia_asparagoides                                 2 0.000962
 2 Acacia_barakulensis                                 1 0.000481
 3 Acacia_barringtonensis                              2 0.000962
 4 Acacia_beadleana                                    1 0.000481
 5 Acacia_betchei                                      6 0.00289 
 6 Acacia_blayana                                      2 0.000962
 7 Acacia_brunioides                                   1 0.000481
 8 Acacia_brunioides_subsp._brunioides                 6 0.00289 
 9 Acacia_brunioides_subsp._granitica                  1 0.000481
10 Acacia_bulgaensis                                   3 0.00144 
# … with 613 more rows
…
# These are the taxa missing `class` information
to_search <- inverts |> 
  filter(is.na(class)) |> 
  select(scientific_name) |> 
  distinct()

# Reformat scientific_name to scientificName as the latter is the ALA format
backfilled_taxa <- to_search|>
  rename(scientificName = scientific_name) |> 
  search_taxa(to_search) |> tibble()

backfilled_taxa

# A tibble: 818 × 15
   search_term  scien…¹ scien…² taxon…³ rank  match…⁴ kingdom phylum class order
   <chr>        <chr>   <chr>   <chr>   <chr> <chr>   <chr>   <chr>  <chr> <chr>
 1 Idiosoma ma… Idioso… (Pococ… https:… spec… exactM… Animal… Arthr… Arac… Aran…
 2 Holonuncia … Holonu… Hunt, … https:… spec… exactM… Animal… Arthr… Arac… Opil…
 3 Trachycosmu… Trachy… Simon,… https:… spec… exactM… Animal… Arthr… Arac… Aran…
 4 Pseudotyran… Pseudo… Beier,… https:… spec… exactM… Animal… Arthr… Arac… Pseu…
 5 Phryganopor… Phryga… (L. Ko… https:… spec… exactM… Animal… Arthr… Arac… Aran…
 6 Latrodectus… Latrod… Thorel… https:… spec… exactM… Animal… Arthr… Arac… Aran…
 7 Ascoschoeng… Ascosc… (Hirst… https:… spec… exactM… Animal… Arthr… Arac… Trom…
 8 Chrestobunu… Chrest… Hickma… https:… spec… exactM… Animal… Arthr… Arac… Opil…
 9 Supunna pic… Nyssus… Walcke… https:… spec… exactM… Animal… Arthr… Arac… Aran…
10 Tasmanicosa… Tasman… (Thore… https:… spec… exactM… Animal… Arthr… Arac… Aran…
# … with 808 more rows, 5 more variables: family <chr>, genus <chr>,
#   species <chr>, issues <chr>, vernacular_name <chr>, and abbreviated
#   variable names ¹​scientific_name, ²​scientific_name_authorship,
#   ³​taxon_concept_id, ⁴​match_type
…
# write_parquet(honeyeaters, "data/galah/honeyeater")

honeyeaters <- open_dataset("data/galah/honeyeater") |> collect()

honeyeaters$taxonRank |> unique()

[1] "species"    "genus"      "subgenus"   "subspecies" "family"    

honeyeaters |> filter(taxonRank == "species")

# A tibble: 43,684 × 9
   decimal…¹ decim…² eventDate           scien…³ taxon…⁴ recor…⁵ dataR…⁶ occur…⁷
       <dbl>   <dbl> <dttm>              <chr>   <chr>   <chr>   <chr>   <chr>  
 1     -37.4    150. 2012-09-26 14:00:00 Meliph… https:… a03712… NSW Bi… PRESENT
 2     -37.4    150. 2012-09-26 14:00:00 Acanth… https:… d0a6d4… NSW Bi… PRESENT
 3     -37.4    150. 2012-04-07 14:00:00 Acanth… https:… b86299… eBird … PRESENT
 4     -37.4    150. 2012-04-07 14:00:00 Nesopt… https:… 3dc377… eBird … PRESENT
 5     -37.4    150. 2012-04-07 14:00:00 Phylid… https:… a011da… eBird … PRESENT
 6     -37.4    150. 2012-04-07 14:00:00 Phylid… https:… a6d1a8… eBird … PRESENT
 7     -37.4    150. 2012-04-07 14:00:00 Nesopt… https:… 8ca89a… eBird … PRESENT
 8     -37.4    150. 2012-04-07 14:00:00 Phylid… https:… a47dac… eBird … PRESENT
 9     -37.4    150. 2012-04-07 14:00:00 Melith… https:… 609ff3… eBird … PRESENT
10     -37.4    150. 2012-04-07 14:00:00 Acanth… https:… 3309e8… eBird … PRESENT
# … with 43,674 more rows, 1 more variable: taxonRank <chr>, and abbreviated
#   variable names ¹​decimalLatitude, ²​decimalLongitude, ³​scientificName,
#   ⁴​taxonConceptID, ⁵​recordID, ⁶​dataResourceName, ⁷​occurrenceStatus
…
