ALA’s Data Cleaning Booklet - 5 Inspect
…
You can also return any rows with NA values in any column…

# return rows with any NA values 
birds |>
  filter(if_any(everything(), is.na))

# A tibble: 962 × 10
   recordID       scientificName taxonConceptID decimalLatitude decimalLongitude
   <chr>          <chr>          <chr>                    <dbl>            <dbl>
 1 0034efe7-4a01… Todiramphus    https://biodi…           -27.2             153.
 2 00478798-95f7… Todiramphus    https://biodi…           -28.2             154.
 3 0064cb36-4eee… Todiramphus    https://biodi…           -27.5             153.
 4 00bcefdb-f852… Todiramphus    https://biodi…           -25.6             153.
 5 00ebd2bb-0c34… Todiramphus    https://biodi…           -27.3             153.
 6 0116442d-a7f6… Todiramphus    https://biodi…           -16.9             146.
 7 01d19d01-c721… Todiramphus    https://biodi…           -27.5             153.
 8 020b9283-447f… Todiramphus    https://biodi…           -16.9             146.
 9 02511840-3813… Todiramphus    https://biodi…           -16.9             146.
10 03a9e4bd-37db… Todiramphus    https://biodi…           -25.6             153.
# ℹ 952 more rows
# ℹ 5 more variables: eventDate <dttm>, occurrenceStatus <chr>,
#   dataResourceName <chr>, genus <chr>, species <chr>

…or in a specified column.

# return rows with NA values for genus
birds |>
  filter(is.na(genus))

# A tibble: 57 × 10
   recordID       scientificName taxonConceptID decimalLatitude decimalLongitude
   <chr>          <chr>          <chr>                    <dbl>            <dbl>
 1 057a8da2-c3e0… ALCEDINIDAE    https://biodi…          -16.9              146.
 2 07757e59-d17d… ALCEDINIDAE    https://biodi…          -24.0              151.
 3 09aff1b0-7a1f… ALCEDINIDAE    https://biodi…          -33.7              151.
 4 0c9b2466-8cc4… ALCEDINIDAE    https://biodi…          -27.4              153.
 5 0cd3cefd-7dd3… ALCEDINIDAE    https://biodi…            1.28             104.
 6 127f502b-b933… ALCEDINIDAE    https://biodi…          -27.3              153.
 7 14e4b268-f9e2… ALCEDINIDAE    https://biodi…          -33.8              151.
 8 19af92a7-2447… ALCEDINIDAE    https://biodi…          -27.4              153.
 9 1ad7cb28-a8d9… ALCEDINIDAE    https://biodi…            1.32             104.
10 1b3b3a01-4b10… ALCEDINIDAE    https://biodi…          -27.4              153.
# ℹ 47 more rows
# ℹ 5 more variables: eventDate <dttm>, occurrenceStatus <chr>,
#   dataResourceName <chr>, genus <chr>, species <chr>

Do columns with text contain names that you expected?

Are there typos or variations in spelling, capitalisation, or synonyms?

We can quickly return unique values using distinct() from dplyr.

birds |>
  select(scientificName) |>
  distinct()

# A tibble: 25 × 1
   scientificName                       
   <chr>                                
 1 Dacelo (Dacelo) novaeguineae         
 2 Todiramphus (Todiramphus) sanctus    
 3 Ceyx azureus                         
 4 Dacelo (Dacelo) leachii              
 5 Todiramphus (Cyanalcyon) pyrrhopygius
 6 Todiramphus (Lazulena) macleayii     
 7 Todiramphus                          
 8 Tanysiptera (Uralcyon) sylvia        
 9 Ceyx pusillus                        
10 Syma torotoro                        
# ℹ 15 more rows

Sometimes it’s also useful to see their count.

birds |>
  group_by(scientificName) |>
  count()

# A tibble: 25 × 2
# Groups:   scientificName [25]
   scientificName                      n
   <chr>                           <int>
 1 ALCEDINIDAE                        57
 2 Ceyx azureus                     1937
 3 Ceyx azureus azureus                2
 4 Ceyx azureus diemenensis            1
 5 Ceyx pusillus                     196
 6 Ceyx pusillus halli                 1
 7 Dacelo                              2
 8 Dacelo (Dacelo)                     4
 9 Dacelo (Dacelo) leachii          1369
10 Dacelo (Dacelo) leachii leachii     2
# ℹ 15 more rows
…
