ALA’s Data Cleaning Booklet - 6 Summarise
…
We can also group our counts by state/territory and a taxonomic rank like genus.

galah_call() |>
  identify("alcedinidae") |>
  filter(year == 2022) |>
  group_by(cl22, genus) |>
  atlas_counts()

# A tibble: 26 × 3
   cl22            genus       count
   <chr>           <chr>       <int>
 1 Queensland      Dacelo      27023
 2 Queensland      Todiramphus 19389
 3 Queensland      Ceyx         2558
 4 Queensland      Tanysiptera   885
 5 Queensland      Syma          336
 6 New South Wales Dacelo      27988
 7 New South Wales Todiramphus  7411
 8 New South Wales Ceyx         1413
 9 Victoria        Dacelo      19642
10 Victoria        Todiramphus  3757
# ℹ 16 more rows
…
birds |>
  group_by(species, cl22) |>
  count() |>
  arrange(desc(n))

# A tibble: 59 × 3
# Groups:   species, cl22 [59]
   species               cl22                   n
   <chr>                 <chr>              <int>
 1 Dacelo novaeguineae   New South Wales    27988
 2 Dacelo novaeguineae   Queensland         23901
 3 Dacelo novaeguineae   Victoria           19641
 4 Todiramphus sanctus   Queensland         10254
 5 Todiramphus sanctus   New South Wales     6652
 6 Todiramphus macleayii Queensland          6357
 7 Dacelo novaeguineae   Western Australia   3956
 8 Todiramphus sanctus   Victoria            3749
 9 Todiramphus macleayii Northern Territory  3135
10 Dacelo leachii        Queensland          3121
# ℹ 49 more rows
…
You can summarise after downloading counts locally, too. With the help of the lubridate package, we’ll convert our column eventDate to a date class in R. Then we can extract date data relevant to our specific summary.

# Using our pre-downloaded dataset
library(lubridate)

birds_date <- birds |>
  mutate(eventDate = date(eventDate), # convert to date
         year = year(eventDate),      # extract year
         month = month(eventDate,     # extract month
                       label = TRUE))

birds_date |>
  select(scientificName, eventDate, year, month, everything())

# A tibble: 138,584 × 14
   scientificName eventDate   year month recordID taxonConceptID decimalLatitude
   <chr>          <date>     <dbl> <ord> <chr>    <chr>                    <dbl>
 1 Dacelo (Dacel… 2022-04-19  2022 Apr   00000eb… https://biodi…           -37.8
 2 Dacelo (Dacel… 2022-12-25  2022 Dec   0000c74… https://biodi…           -37.7
 3 Dacelo (Dacel… 2022-10-27  2022 Oct   0001057… https://biodi…           -43.0
 4 Dacelo (Dacel… 2022-01-23  2022 Jan   000121a… https://biodi…           -36.9
 5 Dacelo (Dacel… 2022-11-09  2022 Nov   0001651… https://biodi…           -32.9
 6 Todiramphus (… 2022-02-05  2022 Feb   0001a29… https://biodi…           -34.5
 7 Todiramphus (… 2022-11-24  2022 Nov   000247a… https://biodi…           -37.1
 8 Dacelo (Dacel… 2022-10-01  2022 Oct   000254a… https://biodi…           -38.2
 9 Dacelo (Dacel… 2022-03-21  2022 Mar   0002618… https://biodi…           -35.4
10 Dacelo (Dacel… 2022-08-14  2022 Aug   00039ab… https://biodi…           -33.5
# ℹ 138,574 more rows
# ℹ 7 more variables: decimalLongitude <dbl>, occurrenceStatus <chr>,
#   dataResourceName <chr>, family <chr>, genus <chr>, species <chr>,
#   cl22 <chr>
…
6.3.1.3 Day line plot

As we discovered earlier, our data retrieved eight records from 2022 despite filtering for 2023 only. Let’s filter them out here so that we can plot the number of records per day, over the course of one year.

# filter dataset to 2023 only (excl. the 8 2022 records) & use lubridate to extract day of year
birds_day <- birds_date |>
  filter(year(eventDate) == 2022) |>
  mutate(
    day_of_year = yday(eventDate))
birds_day

# A tibble: 138,578 × 15
   recordID       scientificName taxonConceptID decimalLatitude decimalLongitude
   <chr>          <chr>          <chr>                    <dbl>            <dbl>
 1 00000eb7-95a6… Dacelo (Dacel… https://biodi…           -37.8             145.
 2 0000c741-b706… Dacelo (Dacel… https://biodi…           -37.7             144.
 3 0001057f-c7e9… Dacelo (Dacel… https://biodi…           -43.0             147.
 4 000121a3-a27e… Dacelo (Dacel… https://biodi…           -36.9             147.
 5 0001651c-6e28… Dacelo (Dacel… https://biodi…           -32.9             152.
 6 0001a29d-b546… Todiramphus (… https://biodi…           -34.5             151.
 7 000247ae-6758… Todiramphus (… https://biodi…           -37.1             146.
 8 000254a1-e2ab… Dacelo (Dacel… https://biodi…           -38.2             146.
 9 0002618d-4563… Dacelo (Dacel… https://biodi…           -35.4             149.
10 00039ab0-6832… Dacelo (Dacel… https://biodi…           -33.5             151.
# ℹ 138,568 more rows
# ℹ 10 more variables: eventDate <date>, occurrenceStatus <chr>,
#   dataResourceName <chr>, family <chr>, genus <chr>, species <chr>,
#   cl22 <chr>, month <ord>, year <dbl>, day_of_year <dbl>

Now we need to count the number of birds per day. We can do this by using {dplyr}’s group_by and sumamrise function.

# group by day of year and generate count for each day 
birds_day <- birds_day |>
  group_by(day_of_year) |>
  summarise(count = n()) 
birds_day

# A tibble: 365 × 2
   day_of_year count
         <dbl> <int>
 1           1   891
 2           2   745
 3           3   692
 4           4   595
 5           5   461
 6           6   440
 7           7   398
 8           8   572
 9           9   682
10          10   433
# ℹ 355 more rows
…
You also might want to repeat this on a weekly basis. Let’s have a look.

birds_week <- birds_date |>
  filter(year(eventDate) == 2022) |>
  mutate(
    week_of_year = week(eventDate)) 
birds_week

# A tibble: 138,578 × 15
   recordID       scientificName taxonConceptID decimalLatitude decimalLongitude
   <chr>          <chr>          <chr>                    <dbl>            <dbl>
 1 00000eb7-95a6… Dacelo (Dacel… https://biodi…           -37.8             145.
 2 0000c741-b706… Dacelo (Dacel… https://biodi…           -37.7             144.
 3 0001057f-c7e9… Dacelo (Dacel… https://biodi…           -43.0             147.
 4 000121a3-a27e… Dacelo (Dacel… https://biodi…           -36.9             147.
 5 0001651c-6e28… Dacelo (Dacel… https://biodi…           -32.9             152.
 6 0001a29d-b546… Todiramphus (… https://biodi…           -34.5             151.
 7 000247ae-6758… Todiramphus (… https://biodi…           -37.1             146.
 8 000254a1-e2ab… Dacelo (Dacel… https://biodi…           -38.2             146.
 9 0002618d-4563… Dacelo (Dacel… https://biodi…           -35.4             149.
10 00039ab0-6832… Dacelo (Dacel… https://biodi…           -33.5             151.
# ℹ 138,568 more rows
# ℹ 10 more variables: eventDate <date>, occurrenceStatus <chr>,
#   dataResourceName <chr>, family <chr>, genus <chr>, species <chr>,
#   cl22 <chr>, month <ord>, year <dbl>, week_of_year <dbl>

# group by week of year and generate count for each week 
birds_week <- birds_week |>
  group_by(week_of_year) |>
  summarise(count = n()) 
birds_week

# A tibble: 53 × 2
   week_of_year count
          <dbl> <int>
 1            1  4222
 2            2  3336
 3            3  2897
 4            4  3070
 5            5  2323
 6            6  2561
 7            7  2530
 8            8  2274
 9            9  1716
10           10  1810
# ℹ 43 more rows
…
