2 Summarise – Cleaning Biodiversity Data in R
…
We can also group our counts by state/territory and a taxonomic rank like genus.

galah_call() |>
  identify("alcedinidae") |>
  filter(year == 2022) |>
  group_by(cl22, genus) |>
  atlas_counts()

# A tibble: 26 × 3
   cl22            genus       count
   <chr>           <chr>       <int>
 1 Queensland      Dacelo      27383
 2 Queensland      Todiramphus 19693
 3 Queensland      Ceyx         2633
 4 Queensland      Tanysiptera   902
 5 Queensland      Syma          347
 6 New South Wales Dacelo      29910
 7 New South Wales Todiramphus  7634
 8 New South Wales Ceyx         1483
 9 Victoria        Dacelo      19655
10 Victoria        Todiramphus  3762
# ℹ 16 more rows
…
birds |>
  group_by(cl22, species) |>
  count() |>
  arrange(desc(n))

# A tibble: 59 × 3
# Groups:   cl22, species [59]
   cl22               species                   n
   <chr>              <chr>                 <int>
 1 New South Wales    Dacelo novaeguineae   29826
 2 Queensland         Dacelo novaeguineae   23920
 3 Victoria           Dacelo novaeguineae   19786
 4 Queensland         Todiramphus sanctus   10254
 5 New South Wales    Todiramphus sanctus    6766
 6 Queensland         Todiramphus macleayii  6360
 7 Western Australia  Dacelo novaeguineae    3964
 8 Victoria           Todiramphus sanctus    3762
 9 Northern Territory Todiramphus macleayii  3138
10 Queensland         Dacelo leachii         3124
# ℹ 49 more rows
…
We’ll convert our column eventDate to a date class in R. Then we can extract relevant date data…

# Using our pre-downloaded dataset
library(lubridate)

birds_date <- birds |>
  mutate(eventDate = date(eventDate), # convert to date
         year = year(eventDate),      # extract year
         month = month(eventDate,     # extract month
                       label = TRUE))

birds_date |>
  select(scientificName, eventDate, year, month)

# A tibble: 140,835 × 4
   scientificName                    eventDate   year month
   <chr>                             <date>     <dbl> <ord>
 1 Dacelo (Dacelo) novaeguineae      2022-04-19  2022 Apr  
 2 Dacelo (Dacelo) novaeguineae      2022-12-25  2022 Dec  
 3 Dacelo (Dacelo) novaeguineae      2022-10-27  2022 Oct  
 4 Dacelo (Dacelo) novaeguineae      2022-01-23  2022 Jan  
 5 Dacelo (Dacelo) novaeguineae      2022-11-09  2022 Nov  
 6 Todiramphus (Todiramphus) sanctus 2022-02-05  2022 Feb  
 7 Todiramphus (Todiramphus) sanctus 2022-11-24  2022 Nov  
 8 Dacelo (Dacelo) novaeguineae      2022-10-01  2022 Oct  
 9 Dacelo (Dacelo) novaeguineae      2022-03-21  2022 Mar  
10 Dacelo (Dacelo) novaeguineae      2022-08-14  2022 Aug  
# ℹ 140,825 more rows
…
There are a few records that seem to be from 2021 despite downloading data for 20223. For simplicity, we’ll filter them out.

# filter dataset to 2022 only
birds_day <- birds_date |>
  filter(year(eventDate) == 2022) |>
  mutate(day = yday(eventDate))

Now we can group our records by each day of the year, and summarise the record count for each day…

birds_day <- birds_day |>
  group_by(day) |>
  summarise(count = n()) 
birds_day

# A tibble: 365 × 2
     day count
   <dbl> <int>
 1     1   892
 2     2   746
 3     3   692
 4     4   595
 5     5   461
 6     6   441
 7     7   398
 8     8   572
 9     9   683
10    10   434
# ℹ 355 more rows
…
