3 Column classes & names – Cleaning Biodiversity Data in R
…
$genus
[1] "character"

$species
[1] "character"

If you are using a tibble, the class is also displayed below each column name when you view your table. Depending on whether your output is in the console or inline, your tibble may be formatted as a paged table in R Studio.

Console
Inline

frogs

# A tibble: 4,062 × 10
   recordID       scientificName taxonConceptID decimalLatitude decimalLongitude
   <chr>          <chr>          <chr>                    <dbl>            <dbl>
 1 00150346-c8f9… Litoria ewing… https://biodi…           -41.7             147.
 2 00168ca6-84d0… Litoria ranif… https://biodi…           -41.2             146.
 3 00182300-3f22… Litoria ewing… https://biodi…           -41.5             147.
 4 00244176-fe5d… Litoria ewing… https://biodi…           -41.8             148.
 5 00250163-ec50… Litoria ranif… https://biodi…           -41.2             147.
 6 0029cce0-e667… Litoria ewing… https://biodi…           -41.3             148.
 7 0039d5b4-e671… Litoria ewing… https://biodi…           -40.1             144.
 8 003ac68d-d40f… Litoria ewing… https://biodi…           -42.1             148.
 9 003e0f63-9f95… Litoria        https://biodi…           -42.9             148.
10 005b4536-49a3… Litoria ewing… https://biodi…           -41.2             147.
# ℹ 4,052 more rows
# ℹ 5 more variables: eventDate <dttm>, occurrenceStatus <chr>,
#   dataResourceName <chr>, genus <chr>, species <chr>
…
Renaming columns is a common data cleaning task. It may be necessary to rename columns to clarify the data they contain or to ensure consistency with another dataset before merging them.

There are several ways to rename columns in R.

rename()
names() + <-

dplyr::rename() provides an easy way to rename one or more columns.

frogs |>
  select(decimalLatitude, decimalLongitude) |>
  rename(latitude = decimalLatitude,
         longitude = decimalLongitude) 

# A tibble: 4,062 × 2
   latitude longitude
      <dbl>     <dbl>
 1    -41.7      147.
 2    -41.2      146.
 3    -41.5      147.
 4    -41.8      148.
 5    -41.2      147.
 6    -41.3      148.
 7    -40.1      144.
 8    -42.1      148.
 9    -42.9      148.
10    -41.2      147.
# ℹ 4,052 more rows

rename_with() is a more powerful version of rename(). It allows more advanced renaming by using functions to rename matching columns. Here we convert column names starting with “decimal” to uppercase.

frogs |>
  select(decimalLatitude, decimalLongitude) |>
  rename_with(toupper, starts_with("decimal"))

# A tibble: 4,062 × 2
   DECIMALLATITUDE DECIMALLONGITUDE
             <dbl>            <dbl>
 1           -41.7             147.
 2           -41.2             146.
 3           -41.5             147.
 4           -41.8             148.
 5           -41.2             147.
 6           -41.3             148.
 7           -40.1             144.
 8           -42.1             148.
 9           -42.9             148.
10           -41.2             147.
# ℹ 4,052 more rows

And here we append the prefix “new_” to columns with names containing “decimal”, and convert them to lowercase.

frogs |>
  select(decimalLatitude, decimalLongitude) |>
1  rename_with( ~ tolower(gsub("decimal", "new_", .x, fixed = TRUE)))

1

.x is shorthand for the variable this function will be applied to. In this case, .x refers to our frogs data frame.

# A tibble: 4,062 × 2
   new_latitude new_longitude
          <dbl>         <dbl>
 1        -41.7          147.
 2        -41.2          146.
 3        -41.5          147.
 4        -41.8          148.
 5        -41.2          147.
 6        -41.3          148.
 7        -40.1          144.
 8        -42.1          148.
 9        -42.9          148.
10        -41.2          147.
# ℹ 4,052 more rows

Index a specific column name in base R with the help of names(). Assign a new column name to replace an old column name using the assignment operator <-.

names(frogs)[names(frogs) == "decimalLatitude"] <- "latitude"
names(frogs)[names(frogs) == "decimalLongitude"] <- "longitude"

frogs[,c("latitude", "longitude")]

# A tibble: 4,062 × 2
   latitude longitude
      <dbl>     <dbl>
 1    -41.7      147.
 2    -41.2      146.
 3    -41.5      147.
 4    -41.8      148.
 5    -41.2      147.
 6    -41.3      148.
 7    -40.1      144.
 8    -42.1      148.
 9    -42.9      148.
10    -41.2      147.
# ℹ 4,052 more rows
…
