7 Dates – Cleaning Biodiversity Data in R
…
7.1.3 An example using galah

Data downloaded using the galah package are loaded into R as date and time data (class POSIXct). As a result, you can immediately begin extracting date/time information using the functions above.

plants |>
  mutate(
    year = year(eventDate),
    month = month(eventDate),
    week = isoweek(eventDate),
    day_julian = yday(eventDate)
    ) |>
  select(eventDate, year, month, 
         week, day_julian)

# A tibble: 216,833 × 5
   eventDate            year month  week day_julian
   <dttm>              <dbl> <dbl> <dbl>      <dbl>
 1 NA                     NA    NA    NA         NA
 2 NA                     NA    NA    NA         NA
 3 2018-07-08 00:00:00  2018     7    27        189
 4 1953-11-19 00:00:00  1953    11    47        323
 5 2019-11-14 00:00:00  2019    11    46        318
 6 2003-09-19 00:00:00  2003     9    38        262
 7 2019-09-06 00:00:00  2019     9    36        249
 8 2022-08-31 00:00:00  2022     8    35        243
 9 1996-10-30 00:00:00  1996    10    44        304
10 1948-09-20 00:00:00  1948     9    39        264
# ℹ 216,823 more rows
…
WarningMissing dates

Keep in mind that some occurrence records don’t have date information (either it wasn’t supplied or was deemed unreliable eg a non-existent date). Rows with missing dates will appear as NA values.

7.2 Filter

We can filter datasets to include or exclude data from certain dates or date ranges.

# return records after 2015
plants |>
  filter(eventDate >= ymd("2016-01-01"))

# A tibble: 75,308 × 8
   recordID       scientificName taxonConceptID decimalLatitude decimalLongitude
   <chr>          <chr>          <chr>                    <dbl>            <dbl>
 1 00005eb8-4b84… Grevillea mur… https://id.bi…           -35.8             138.
 2 000143a7-20e2… Grevillea jun… https://id.bi…           -33.7             151.
 3 00020893-9823… Grevillea aqu… https://id.bi…           -37.3             142.
 4 0002cd90-4099… Grevillea tre… https://id.bi…           -30.9             134.
 5 00040117-eae2… Grevillea par… https://id.bi…           -32.8             152.
 6 00045361-870d… Grevillea bux… https://id.bi…           -33.7             151.
 7 00053e34-1bdb… Grevillea ros… https://id.bi…           -37.7             145.
 8 0006e628-69d5… Grevillea rhi… https://id.bi…           -29.5             152.
 9 00075a74-e3de… Grevillea par… https://id.bi…           -34.2             151.
10 0008295a-79de… Grevillea cel… https://id.bi…           -37.7             148.
# ℹ 75,298 more rows
# ℹ 3 more variables: eventDate <dttm>, occurrenceStatus <chr>,
#   dataResourceName <chr>

# return records between 2015 & 2018
plants |> 
  filter(eventDate >= ymd("2016-01-01") & 
           eventDate <= ymd("2017-12-31"))

# A tibble: 9,830 × 8
   recordID       scientificName taxonConceptID decimalLatitude decimalLongitude
   <chr>          <chr>          <chr>                    <dbl>            <dbl>
 1 000b499b-dc80… Grevillea bux… https://id.bi…           -33.7             151.
 2 000e2c2b-953e… Grevillea hil… https://id.bi…            NA                NA 
 3 0014b88f-ecc5… Grevillea gut… https://id.bi…           -32.5             152.
 4 001ac6ed-1de5… Grevillea ser… https://id.bi…           -32.2             150.
 5 001c6599-0f27… Grevillea aca… https://id.bi…           -33.4             150.
 6 001f301f-0192… Grevillea dry… https://id.bi…           -12.5             131.
 7 002a8fb4-e1f9… Grevillea cal… https://id.bi…           -33.7             151.
 8 002e9fb9-ff3b… Grevillea cal… https://id.bi…           -33.7             151.
 9 003484c8-b1f3… Grevillea eri… https://id.bi…           -25.4             131.
10 0038f556-0591… Grevillea lin… https://id.bi…           -33.7             151.
# ℹ 9,820 more rows
# ℹ 3 more variables: eventDate <dttm>, occurrenceStatus <chr>,
#   dataResourceName <chr>
…
