Cleaning Biodiversity Data in R - 5 Missing values
…
From here we can return all rows with a missing variable.

geckos |> 
  filter(if_any(everything(), is.na)) |>
  select(scientificName, genus, 
         species, cl22, everything()) # reorder columns

# A tibble: 3,604 × 17
   scientificName    genus species cl22  recordID taxonConceptID decimalLatitude
   <chr>             <chr> <chr>   <chr> <chr>    <chr>                    <dbl>
 1 Gehyra            Gehy… <NA>    Sout… 001949e… https://biodi…          -28.1 
 2 Gehyra            Gehy… <NA>    Nort… 001ab80… https://biodi…          -16.1 
 3 Gehyra australis  Gehy… Gehyra… Nort… 002f70c… https://biodi…          -13.1 
 4 Lepidodactylus p… Lepi… Lepido… <NA>  00336d7… https://biodi…           -8.81
 5 Christinus        Chri… <NA>    Sout… 003e84f… https://biodi…          -35.0 
 6 Gehyra            Gehy… <NA>    Quee… 0046174… https://biodi…          -26.7 
 7 Gehyra nana       Gehy… Gehyra… <NA>  005ea26… https://biodi…           NA   
 8 GEKKONIDAE        <NA>  <NA>    Quee… 007172d… https://biodi…          -19.3 
 9 Gehyra            Gehy… <NA>    Nort… 0073628… https://biodi…          -22.2 
10 Gehyra punctata   Gehy… Gehyra… <NA>  007a329… https://biodi…           NA   
# ℹ 3,594 more rows
# ℹ 10 more variables: decimalLongitude <dbl>, eventDate <dttm>,
#   occurrenceStatus <chr>, dataResourceName <chr>, kingdom <chr>,
#   phylum <chr>, order <chr>, class <chr>, family <chr>, month <dbl>

Or we can specify a column to find rows with NA values (in this case column cl22).

geckos |> 
  filter(if_any(cl22, is.na)) |> 
  select(scientificName, genus, 
         species, cl22, everything()) # reorder columns

# A tibble: 1,265 × 17
   scientificName    genus species cl22  recordID taxonConceptID decimalLatitude
   <chr>             <chr> <chr>   <chr> <chr>    <chr>                    <dbl>
 1 Lepidodactylus p… Lepi… Lepido… <NA>  00336d7… https://biodi…           -8.81
 2 Gehyra nana       Gehy… Gehyra… <NA>  005ea26… https://biodi…           NA   
 3 Gehyra punctata   Gehy… Gehyra… <NA>  007a329… https://biodi…           NA   
 4 Christinus marmo… Chri… Christ… <NA>  009be60… https://biodi…          -32.1 
 5 Cyrtodactylus     Cyrt… <NA>    <NA>  00a3522… https://biodi…           -5.73
 6 Hemidactylus fre… Hemi… Hemida… <NA>  00c6832… https://biodi…            1.29
 7 Cyrtodactylus     Cyrt… <NA>    <NA>  00fdca4… https://biodi…           -7.42
 8 Cyrtodactylus sa… Cyrt… Cyrtod… <NA>  012e94f… https://biodi…          -10.5 
 9 Christinus marmo… Chri… Christ… <NA>  0143054… https://biodi…          -32.0 
10 Hemidactylus fre… Hemi… Hemida… <NA>  01aae23… https://biodi…           16.0 
# ℹ 1,255 more rows
# ℹ 10 more variables: decimalLongitude <dbl>, eventDate <dttm>,
#   occurrenceStatus <chr>, dataResourceName <chr>, kingdom <chr>,
#   phylum <chr>, order <chr>, class <chr>, family <chr>, month <dbl>
…
geckos |> 
  filter(if_any(c(decimalLongitude, decimalLatitude), is.na)) |>
  count()

# A tibble: 1 × 1
      n
  <int>
1   153

geckos |> 
  filter(if_any(c(decimalLongitude, decimalLatitude), is.na)) |>
  select(scientificName, decimalLongitude, 
         decimalLatitude, everything()) # reorder columns

# A tibble: 153 × 17
   scientificName      decimalLongitude decimalLatitude recordID  taxonConceptID
   <chr>                          <dbl>           <dbl> <chr>     <chr>         
 1 Gehyra nana                       NA              NA 005ea268… https://biodi…
 2 Gehyra punctata                   NA              NA 007a3298… https://biodi…
 3 Heteronotia binoei                NA              NA 03a123ed… https://biodi…
 4 Gehyra australis                  NA              NA 05bef070… https://biodi…
 5 Gehyra occidentalis               NA              NA 0846001e… https://biodi…
 6 GEKKONIDAE                        NA              NA 0a078043… https://biodi…
 7 Gehyra xenopus                    NA              NA 0ad77ff9… https://biodi…
 8 Gehyra occidentalis               NA              NA 0c5390b2… https://biodi…
 9 Gehyra punctata                   NA              NA 11bbc940… https://biodi…
10 Gehyra nana                       NA              NA 12d9f935… https://biodi…
# ℹ 143 more rows
# ℹ 12 more variables: eventDate <dttm>, occurrenceStatus <chr>,
#   dataResourceName <chr>, kingdom <chr>, phylum <chr>, order <chr>,
#   class <chr>, family <chr>, genus <chr>, species <chr>, cl22 <chr>,
#   month <dbl>
…
# randomly replace some row's class & family names with NAs
geckos_missing <- geckos |>
  mutate(class = replace(class, 
                         sample(row_number(), 
                                size = ceiling(0.15 * n())), 
                         NA),
         family = replace(family, 
                          sample(row_number(), 
                                 size = ceiling(0.15 * n())), 
                          NA))

geckos_missing |>
  select(scientificName, class, family, genus, species, everything())

# A tibble: 28,514 × 17
   scientificName        class    family   genus species recordID taxonConceptID
   <chr>                 <chr>    <chr>    <chr> <chr>   <chr>    <chr>         
 1 Gehyra dubia          Reptilia Gekkoni… Gehy… Gehyra… 00002a3… https://biodi…
 2 Christinus marmoratus Reptilia Gekkoni… Chri… Christ… 0002970… https://biodi…
 3 Heteronotia binoei    Reptilia Gekkoni… Hete… Hetero… 0007fcc… https://biodi…
 4 Gehyra australis      Reptilia Gekkoni… Gehy… Gehyra… 00087c0… https://biodi…
 5 Hemidactylus frenatus Reptilia Gekkoni… Hemi… Hemida… 000c00b… https://biodi…
 6 Heteronotia binoei    Reptilia Gekkoni… Hete… Hetero… 000cd36… https://biodi…
 7 Christinus marmoratus Reptilia Gekkoni… Chri… Christ… 0018b78… https://biodi…
 8 Gehyra                Reptilia Gekkoni… Gehy… <NA>    001949e… https://biodi…
 9 Heteronotia binoei    Reptilia Gekkoni… Hete… Hetero… 0019729… https://biodi…
10 Gehyra                Reptilia Gekkoni… Gehy… <NA>    001ab80… https://biodi…
# ℹ 28,504 more rows
# ℹ 10 more variables: decimalLatitude <dbl>, decimalLongitude <dbl>,
#   eventDate <dttm>, occurrenceStatus <chr>, dataResourceName <chr>,
#   kingdom <chr>, phylum <chr>, order <chr>, cl22 <chr>, month <dbl>
…
One handy tip you can use with the galah package is to add the column taxonRank. This column usefully shows the taxonomic level of names in scientificName3. taxonRank can be useful because we can filter to only include records down to a specific rank.

geckos_rank <- galah_call() |>
  identify("gekkonidae") |>
  filter(year == 2013) |>
  select(group = "basic",
         taxonRank) |> # add column
  atlas_occurrences()

# return records identified to species level
geckos_rank |>
  filter(taxonRank == "species") |>
  select(taxonRank, scientificName, everything()) # reorder columns

# A tibble: 1,825 × 9
   taxonRank scientificName        recordID       taxonConceptID decimalLatitude
   <chr>     <chr>                 <chr>          <chr>                    <dbl>
 1 species   Gehyra variegata      001c2b9f-34c8… https://biodi…           -22.7
 2 species   Heteronotia binoei    0069dbdc-3b6a… https://biodi…           -16.4
 3 species   Gehyra versicolor     0076a197-d0ee… https://biodi…           -21.5
 4 species   Gehyra punctata       007a3298-fc44… https://biodi…            NA  
 5 species   Heteronotia binoei    00a0405a-7852… https://biodi…           -12.6
 6 species   Gehyra chimera        00aaed8f-218c… https://biodi…           -17.1
 7 species   Heteronotia binoei    00b95296-ff57… https://biodi…           -12.7
 8 species   Christinus marmoratus 00c15ed1-873e… https://biodi…           -35.4
 9 species   Christinus marmoratus 00d886f8-1ee4… https://biodi…           -35.0
10 species   Gehyra variegata      00e80fcb-843d… https://biodi…           -29.9
# ℹ 1,815 more rows
# ℹ 4 more variables: decimalLongitude <dbl>, eventDate <dttm>,
#   occurrenceStatus <chr>, dataResourceName <chr>

However, it is still possible to filter records using the tools above without using the taxonRank column. In this case we remove records not identified down to the genus.

geckos_filtered <- geckos |>
  drop_na(genus) |>
  select(scientificName, genus, species, everything()) # reorder columns

geckos_filtered

# A tibble: 27,788 × 17
   scientificName        genus   species recordID taxonConceptID decimalLatitude
   <chr>                 <chr>   <chr>   <chr>    <chr>                    <dbl>
 1 Gehyra dubia          Gehyra  Gehyra… 00002a3… https://biodi…           -24.1
 2 Christinus marmoratus Christ… Christ… 0002970… https://biodi…           -34.7
 3 Heteronotia binoei    Hetero… Hetero… 0007fcc… https://biodi…           -12.6
 4 Gehyra australis      Gehyra  Gehyra… 00087c0… https://biodi…           -14.4
 5 Hemidactylus frenatus Hemida… Hemida… 000c00b… https://biodi…           -27.5
 6 Heteronotia binoei    Hetero… Hetero… 000cd36… https://biodi…           -13.3
 7 Christinus marmoratus Christ… Christ… 0018b78… https://biodi…           -36.1
 8 Gehyra                Gehyra  <NA>    001949e… https://biodi…           -28.1
 9 Heteronotia binoei    Hetero… Hetero… 0019729… https://biodi…           -12.7
10 Gehyra                Gehyra  <NA>    001ab80… https://biodi…           -16.1
# ℹ 27,778 more rows
# ℹ 11 more variables: decimalLongitude <dbl>, eventDate <dttm>,
#   occurrenceStatus <chr>, dataResourceName <chr>, kingdom <chr>,
#   phylum <chr>, order <chr>, class <chr>, family <chr>, cl22 <chr>,
#   month <dbl>
…
