10 Geospatial cleaning – Cleaning Biodiversity Data in R
…
1

We created a custom DOI for our download by using atlas_occurrences(mint_doi = TRUE).

10.1 Missing coordinates

As discussed in Missing Values chapter, many spatial analytical tools are not compatible with missing coordinate data. We recommend identifying the rows that have missing data before deciding to exclude them.

# Identify missing data in coordinates
desert_plant |> 
  filter(is.na(decimalLatitude) | is.na (decimalLongitude))

# A tibble: 95 × 9
   recordID       scientificName taxonConceptID decimalLatitude decimalLongitude
   <chr>          <chr>          <chr>                    <dbl>            <dbl>
 1 000d4874-8c74… Eremophila ma… https://id.bi…              NA               NA
 2 050653b6-a41c… Eremophila ma… https://id.bi…              NA               NA
 3 06e69581-7d6d… Eremophila ma… https://id.bi…              NA               NA
 4 0973271a-e222… Eremophila ma… https://id.bi…              NA               NA
 5 0eead38f-0c16… Eremophila ma… https://id.bi…              NA               NA
 6 0f52e34b-a803… Eremophila ma… https://id.bi…              NA               NA
 7 1185c4f9-1cb6… Eremophila ma… https://id.bi…              NA               NA
 8 1190b3b9-90d8… Eremophila ma… https://id.bi…              NA               NA
 9 13a24c07-f628… Eremophila ma… https://id.bi…              NA               NA
10 18d11ae3-e558… Eremophila ma… https://id.bi…              NA               NA
# ℹ 85 more rows
# ℹ 4 more variables: eventDate <dttm>, occurrenceStatus <chr>,
#   dataResourceName <chr>, PRESUMED_SWAPPED_COORDINATE <lgl>
…
Eremophila macdonnellii aka MacDonnell’s desert fuschia.
Photo by M. Fagg CC-BY 3.0 (Au)

desert_plant <- desert_plant |>
  drop_na(decimalLongitude, decimalLatitude) # remove NA coordinates

desert_plant |>
  select(PRESUMED_SWAPPED_COORDINATE, everything())

# A tibble: 930 × 9
   PRESUMED_SWAPPED_COO…¹ recordID scientificName taxonConceptID decimalLatitude
   <lgl>                  <chr>    <chr>          <chr>                    <dbl>
 1 FALSE                  0009009… Eremophila ma… https://id.bi…           -22.8
 2 FALSE                  002e372… Eremophila ma… https://id.bi…           -25.3
 3 FALSE                  0034dc0… Eremophila ma… https://id.bi…           -23.9
 4 FALSE                  0063223… Eremophila ma… https://id.bi…           -24.5
 5 FALSE                  00d15a5… Eremophila ma… https://id.bi…           -27.8
 6 FALSE                  013049a… Eremophila ma… https://id.bi…           -25.2
 7 FALSE                  015571a… Eremophila ma… https://id.bi…           -22.1
 8 FALSE                  01b5e44… Eremophila ma… https://id.bi…           -25.2
 9 FALSE                  02524e1… Eremophila ma… https://id.bi…           -25.1
10 FALSE                  026c225… Eremophila ma… https://id.bi…           -25.8
# ℹ 920 more rows
# ℹ abbreviated name: ¹​PRESUMED_SWAPPED_COORDINATE
# ℹ 4 more variables: decimalLongitude <dbl>, eventDate <dttm>,
#   occurrenceStatus <chr>, dataResourceName <chr>
…
Litoria chloris standing on leaves.
Photo by Reiner Richter CC-BY

frogs <- frogs |>
  drop_na(decimalLatitude, decimalLongitude) # remove NA values

frogs

# A tibble: 25 × 14
   recordID       scientificName taxonConceptID decimalLatitude decimalLongitude
   <chr>          <chr>          <chr>                    <dbl>            <dbl>
 1 0bbcdc4a-5638… Litoria chlor… https://biodi…           -28.4             153.
 2 16ecde94-6b9b… Litoria chlor… https://biodi…           -28.4             153.
 3 2ba9c818-e81a… Litoria chlor… https://biodi…           -27.4             152.
 4 4a1b77fa-3538… Litoria chlor… https://biodi…           -30.1             153.
 5 4d3274a4-f9cd… Litoria chlor… https://biodi…           -27.4             153.
 6 52c1043c-5f79… Litoria chlor… https://biodi…           -29.7             152.
 7 52d5551a-816d… Litoria chlor… https://biodi…           -29.9             153.
 8 5c2c4fb6-5c5f… Litoria chlor… https://biodi…           -29.7             152.
 9 5d4be730-cc39… Litoria chlor… https://biodi…           -28.4             153.
10 73a3b671-13a7… Litoria chlor… https://biodi…           -26.6             153.
# ℹ 15 more rows
# ℹ 9 more variables: eventDate <dttm>, occurrenceStatus <chr>,
#   dataResourceName <chr>, countryCode <chr>, locality <chr>, family <chr>,
#   genus <chr>, species <chr>, cl22 <chr>
…
# A tibble: 1 × 5
  countryCode locality scientificName  decimalLatitude decimalLongitude
  <chr>       <chr>    <chr>                     <dbl>            <dbl>
1 JP          mt bucca Litoria chloris            24.5             152.

The locality column reveals the observation was made in “mt bucca”. This is surprising to see because Mt Bucca is a mountain in Queensland!

When we look at our Japan data point’s decimalLongitude and decimalLatitude alongside other values in our data, it becomes clear that the Japan data point seems to sit within the same numerical range as other points, but the decimalLatitude is positive rather than negative.

frogs |>
  arrange(desc(countryCode)) |>
  select(countryCode, decimalLongitude, decimalLatitude) |>
  print(n = 5)

# A tibble: 25 × 3
  countryCode decimalLongitude decimalLatitude
  <chr>                  <dbl>           <dbl>
1 JP                      152.            24.5
2 AU                      153.           -28.4
3 AU                      153.           -28.4
4 AU                      152.           -27.4
5 AU                      153.           -30.1
# ℹ 20 more rows
…
Dasyuroides byrnei pair captured in red light.
Photo by Ged Tranter CC-BY

native_mice <- native_mice |>
  drop_na(decimalLongitude, decimalLatitude)
  
native_mice |>
  select(COUNTRY_COORDINATE_MISMATCH, everything())

# A tibble: 1,278 × 131
   COUNTRY_COORDINATE_MISMATCH scientificName   decimalLongitude decimalLatitude
   <lgl>                       <chr>                       <dbl>           <dbl>
 1 FALSE                       Dasyuroides byr…             141.           -24.2
 2 FALSE                       Dasyuroides byr…             140.           -23.7
 3 FALSE                       Dasyuroides byr…             140.           -26.7
 4 FALSE                       Dasyuroides byr…             135.           -25.9
 5 FALSE                       Dasyuroides byr…             139.           -26.8
 6 FALSE                       Dasyuroides byr…             141.           -23.8
 7 FALSE                       Dasyuroides byr…             140.           -27.0
 8 FALSE                       Dasyuroides byr…             137.           -30.3
 9 FALSE                       Dasyuroides byr…             139.           -26.8
10 FALSE                       Dasyuroides byr…             140.           -26.7
# ℹ 1,268 more rows
# ℹ 127 more variables: eventDate <dttm>, country <chr>, countryCode <chr>,
#   locality <chr>, AMBIGUOUS_COLLECTION <lgl>, AMBIGUOUS_INSTITUTION <lgl>,
#   BASIS_OF_RECORD_INVALID <lgl>, biosecurityIssue <lgl>,
#   COLLECTION_MATCH_FUZZY <lgl>, COLLECTION_MATCH_NONE <lgl>,
#   CONTINENT_COORDINATE_MISMATCH <lgl>, CONTINENT_COUNTRY_MISMATCH <lgl>,
#   CONTINENT_DERIVED_FROM_COORDINATES <lgl>, …
…
Acacia aneura flowering.
Photo by rachbaxter CC-BY-NC 4.0 (Int)

acacias <- acacias |>
  drop_na(decimalLatitude, decimalLongitude) # remove NA values

acacias |>
  select(ZERO_COORDINATE, everything())

# A tibble: 11,326 × 11
   ZERO_COORDINATE recordID        scientificName taxonConceptID decimalLatitude
   <lgl>           <chr>           <chr>          <chr>                    <dbl>
 1 FALSE           00197d65-f235-… Acacia aneura  https://id.bi…           -29.5
 2 FALSE           001a3cbb-a370-… Acacia aneura… https://id.bi…           -28.0
 3 FALSE           00238db7-6c4e-… Acacia aneura… https://id.bi…           -34.1
 4 FALSE           00276566-b590-… Acacia aneura  https://id.bi…           -29.7
 5 FALSE           0029f3cf-b541-… Acacia aneura  https://id.bi…           -29.0
 6 FALSE           0034f771-a3e1-… Acacia aneura  https://id.bi…           -31.1
 7 FALSE           0035cb4f-85e5-… Acacia aneura… https://id.bi…           -29.5
 8 FALSE           003cce3b-f3f8-… Acacia aneura  https://id.bi…           -29.1
 9 FALSE           0049bcbb-c8c2-… Acacia aneura  https://id.bi…           -25.5
10 FALSE           004dfec5-7095-… Acacia aneura  https://id.bi…           -28.6
# ℹ 11,316 more rows
# ℹ 6 more variables: decimalLongitude <dbl>, eventDate <dttm>,
#   occurrenceStatus <chr>, dataResourceName <chr>, countryCode <chr>,
#   locality <chr>
…
Heteronympha merope merope resting on leaf litter.
Photo by Mononymous CC-BY-NC 4.0 (Int)

Including the COORDINATES_CENTRE_OF_COUNTRY and/or COORDINATES_CENTRE_OF_STATEPROVINCE assertions columns to your download allows us to identify records flagged as containing centroid coordinates.

butterflies <- butterflies |>
  drop_na(decimalLatitude, decimalLongitude) # remove NA values

butterflies |>
  select(COORDINATES_CENTRE_OF_COUNTRY,
         COORDINATES_CENTRE_OF_STATEPROVINCE,
         everything())

# A tibble: 343 × 12
   COORDINATES_CENTRE_OF_COUNTRY COORDINATES_CENTRE_OF…¹ recordID scientificName
   <lgl>                         <lgl>                   <chr>    <chr>         
 1 FALSE                         FALSE                   018f5a5… Heteronympha …
 2 FALSE                         FALSE                   02eef43… Heteronympha …
 3 FALSE                         FALSE                   03b39bb… Heteronympha …
 4 FALSE                         FALSE                   04c2ac2… Heteronympha …
 5 FALSE                         FALSE                   05cced1… Heteronympha …
 6 FALSE                         FALSE                   05ceb8b… Heteronympha …
 7 FALSE                         FALSE                   06679b8… Heteronympha …
 8 FALSE                         FALSE                   0704e7b… Heteronympha …
 9 FALSE                         FALSE                   0756bd4… Heteronympha …
10 FALSE                         FALSE                   0774f2e… Heteronympha …
# ℹ 333 more rows
# ℹ abbreviated name: ¹​COORDINATES_CENTRE_OF_STATEPROVINCE
# ℹ 8 more variables: taxonConceptID <chr>, decimalLatitude <dbl>,
#   decimalLongitude <dbl>, eventDate <dttm>, occurrenceStatus <chr>,
#   dataResourceName <chr>, countryCode <chr>, locality <chr>
…
