9 Geospatial investigation – Cleaning Biodiversity Data in R
…
We created a custom DOI for our download by using atlas_occurrences(mint_doi = TRUE).

ImportantUsing “Assertions”

To check data quality, data infrastructures like the Atlas of Living Australia have assertions—data quality tests that data infrastructures use to flag when a record has an issue. The results of these assertions are saved in assertions columns that can be accessed by users if they would like them.

If we use galah to download records, we can add assertions columns to our query to help identify and clean suspicious records.

If you would like to view assertions, use show_all().

assertions <- show_all(assertions)
assertions |>
  print(n = 7)

# A tibble: 124 × 4
  id                            description                   category type     
  <chr>                         <chr>                         <chr>    <chr>    
1 AMBIGUOUS_COLLECTION          Ambiguous collection          Comment  assertio…
2 AMBIGUOUS_INSTITUTION         Ambiguous institution         Comment  assertio…
3 BASIS_OF_RECORD_INVALID       Basis of record badly formed  Warning  assertio…
4 biosecurityIssue              Biosecurity issue             Error    assertio…
5 COLLECTION_MATCH_FUZZY        Collection match fuzzy        Comment  assertio…
6 COLLECTION_MATCH_NONE         Collection not matched        Comment  assertio…
7 CONTINENT_COORDINATE_MISMATCH continent coordinate mismatch Warning  assertio…
# ℹ 117 more rows

You can use the stringr package to search for text matches.

assertions |>
  filter(str_detect(id, "COORDINATE")) |>
  print(n = 5)

# A tibble: 17 × 4
  id                                 description                  category type 
  <chr>                              <chr>                        <chr>    <chr>
1 CONTINENT_COORDINATE_MISMATCH      continent coordinate mismat… Warning  asse…
2 CONTINENT_DERIVED_FROM_COORDINATES Continent derived from coor… Warning  asse…
3 COORDINATE_INVALID                 Coordinate invalid           Warning  asse…
4 COORDINATE_OUT_OF_RANGE            Coordinates are out of rang… Warning  asse…
5 COORDINATE_PRECISION_INVALID       Coordinate precision invalid Warning  asse…
# ℹ 12 more rows
…
The degree of precision you require will depend on the granularity of your research question and analysis. A fine-scale question will require data measured at a fine-scale to answer it. National or global scale questions require less precise data.

When downloading data from the ALA with the galah package, it’s possible to include the coordinatePrecision field with your data; this provides a decimal representation of the precision of coordinates for each observation.

banksia |>
  select(scientificName, 
         coordinatePrecision
         ) |>
1  filter(!is.na(coordinatePrecision))

1

Not all records have this information recorded, so we also filter to only records with a coordinatePrecision value.

# A tibble: 227 × 2
   scientificName  coordinatePrecision
   <chr>                         <dbl>
 1 Banksia serrata         0.000000001
 2 Banksia serrata         0.000000001
 3 Banksia serrata         0.000000001
 4 Banksia serrata         0.000000001
 5 Banksia serrata         0.000000001
 6 Banksia serrata         0.000000001
 7 Banksia serrata         0.000000001
 8 Banksia serrata         0.000000001
 9 Banksia serrata         0.000000001
10 Banksia serrata         0.000000001
# ℹ 217 more rows
…
9.3 Uncertainty

Uncertainty is a measure of how different an unknown true value might be from a given value. In georeferencing, we use uncertainty to refer to the maximum distance from a georeferenced coordinate to the furthest point where the true location might be. This uncertainty value is a combination of all the possible sources of error given as a distance (Chapman and Wieczorek 2020), taking into account issues like an unknown coordinate projection, derived geocoordinates (e.g., using geocoordinates for a described town or creek) or any uncertainty around an observation’s specific location.

An additional factor that can affect the uncertainty of a geocoordinate is the practice of obfuscation—using standard methods to hide the original location of a record. This is discussed more in the next section. Although adding uncertainty to data is important for protecting individual species, uncertainty inevitably affects how robust the results from species distribution models are, so it is important to be aware of location uncertainty.

When downloading data from the ALA with the galah package, it’s possible to include the coordinateUncertaintyInMeters field with your data. We added this column in our original galah query.

banksia |>
  select(scientificName,
         coordinateUncertaintyInMeters
         )

# A tibble: 1,733 × 2
   scientificName  coordinateUncertaintyInMeters
   <chr>                                   <dbl>
 1 Banksia serrata                           316
 2 Banksia serrata                            10
 3 Banksia serrata                             3
 4 Banksia serrata                          2268
 5 Banksia serrata                            NA
 6 Banksia serrata                          2036
 7 Banksia serrata                            NA
 8 Banksia serrata                             4
 9 Banksia serrata                             5
10 Banksia serrata                            NA
# ℹ 1,723 more rows

There is a range of coordinate uncertainty in our data, with many falling within 10m of uncertainty.

banksia |> 
  count(coordinateUncertaintyInMeters) 

# A tibble: 270 × 2
   coordinateUncertaintyInMeters     n
                           <dbl> <int>
 1                             1     6
 2                             2    27
 3                             3   108
 4                             4   274
 5                             5   122
 6                             6    30
 7                             7    28
 8                             8    47
 9                             9    37
10                            10   124
# ℹ 260 more rows
…
