ALA’s Data Cleaning Booklet - 12 Column classes & names
…
$dataResourceName
[1] "character"

$genus
[1] "character"

$species
[1] "character"

If you are using a tibble(), the class is also displayed below each column name when you view your dataframe.

frogs

# A tibble: 1,721 × 10
   recordID       scientificName taxonConceptID decimalLatitude decimalLongitude
   <chr>          <chr>          <chr>                    <dbl>            <dbl>
 1 00168ca6-84d0… Litoria        https://biodi…           -41.2             146.
 2 00250163-ec50… Litoria        https://biodi…           -41.2             147.
 3 003e0f63-9f95… Litoria ewing… https://biodi…           -42.9             148.
 4 00410554-5289… Litoria ewing… https://biodi…           -41.7             147.
 5 0070521f-bb45… Litoria ewing… https://biodi…           -43.1             147.
 6 0081e7ef-459b… Litoria ewing… https://biodi…           -43.2             147.
 7 0086def1-8415… Litoria ewing… https://biodi…           -41.2             147.
 8 00b40ee7-074b… Litoria ewing… https://biodi…           -41.5             147.
 9 014584b3-5fc7… Litoria ewing… https://biodi…           -41.0             145.
10 0160369c-f2f6… Litoria ewing… https://biodi…           -42.8             148.
# ℹ 1,711 more rows
# ℹ 5 more variables: eventDate <dttm>, occurrenceStatus <chr>,
#   dataResourceName <chr>, genus <chr>, species <chr>
…
Renaming columns is a frequent data cleaning task. Column names might need renaming to make it clearer what data they contain, or to make a name consistent with another dataset prior to merging their contents together.

There are several ways to rename columns in R.

rename()
names() + <-

rename() (from dplyr) provides an easy way to rename one or more columns.

frogs |>
  select(decimalLatitude, decimalLongitude) |>
  rename(latitude = decimalLatitude,
         longitude = decimalLongitude)

# A tibble: 1,721 × 2
   latitude longitude
      <dbl>     <dbl>
 1    -41.2      146.
 2    -41.2      147.
 3    -42.9      148.
 4    -41.7      147.
 5    -43.1      147.
 6    -43.2      147.
 7    -41.2      147.
 8    -41.5      147.
 9    -41.0      145.
10    -42.8      148.
# ℹ 1,711 more rows

rename_with() is a more powerful verion of rename(). It allows more advanced renaming by using functions to rename matching columns.

frogs |>
  rename_with(toupper, starts_with("decimal"))

# A tibble: 1,721 × 10
   recordID       scientificName taxonConceptID DECIMALLATITUDE DECIMALLONGITUDE
   <chr>          <chr>          <chr>                    <dbl>            <dbl>
 1 00168ca6-84d0… Litoria        https://biodi…           -41.2             146.
 2 00250163-ec50… Litoria        https://biodi…           -41.2             147.
 3 003e0f63-9f95… Litoria ewing… https://biodi…           -42.9             148.
 4 00410554-5289… Litoria ewing… https://biodi…           -41.7             147.
 5 0070521f-bb45… Litoria ewing… https://biodi…           -43.1             147.
 6 0081e7ef-459b… Litoria ewing… https://biodi…           -43.2             147.
 7 0086def1-8415… Litoria ewing… https://biodi…           -41.2             147.
 8 00b40ee7-074b… Litoria ewing… https://biodi…           -41.5             147.
 9 014584b3-5fc7… Litoria ewing… https://biodi…           -41.0             145.
10 0160369c-f2f6… Litoria ewing… https://biodi…           -42.8             148.
# ℹ 1,711 more rows
# ℹ 5 more variables: eventDate <dttm>, occurrenceStatus <chr>,
#   dataResourceName <chr>, genus <chr>, species <chr>

frogs |>
  rename_with( ~ tolower(gsub("decimal", "new_", .x, fixed = TRUE)))

# A tibble: 1,721 × 10
   recordid             scientificname taxonconceptid new_latitude new_longitude
   <chr>                <chr>          <chr>                 <dbl>         <dbl>
 1 00168ca6-84d0-4af1-… Litoria        https://biodi…        -41.2          146.
 2 00250163-ec50-4eda-… Litoria        https://biodi…        -41.2          147.
 3 003e0f63-9f95-4af9-… Litoria ewing… https://biodi…        -42.9          148.
 4 00410554-5289-416f-… Litoria ewing… https://biodi…        -41.7          147.
 5 0070521f-bb45-46fb-… Litoria ewing… https://biodi…        -43.1          147.
 6 0081e7ef-459b-42a9-… Litoria ewing… https://biodi…        -43.2          147.
 7 0086def1-8415-4bb3-… Litoria ewing… https://biodi…        -41.2          147.
 8 00b40ee7-074b-4dae-… Litoria ewing… https://biodi…        -41.5          147.
 9 014584b3-5fc7-43df-… Litoria ewing… https://biodi…        -41.0          145.
10 0160369c-f2f6-48a1-… Litoria ewing… https://biodi…        -42.8          148.
# ℹ 1,711 more rows
# ℹ 5 more variables: eventdate <dttm>, occurrencestatus <chr>,
#   dataresourcename <chr>, genus <chr>, species <chr>

Index a specific column name in base R with the help of names(). Assign a new column name to replace an old column name using the assign operator <-.

names(frogs)[names(frogs) == "decimalLatitude"] <- "latitude"
names(frogs)[names(frogs) == "decimalLongitude"] <- "longitude"

frogs[,c("latitude", "longitude")]

# A tibble: 1,721 × 2
   latitude longitude
      <dbl>     <dbl>
 1    -41.2      146.
 2    -41.2      147.
 3    -42.9      148.
 4    -41.7      147.
 5    -43.1      147.
 6    -43.2      147.
 7    -41.2      147.
 8    -41.5      147.
 9    -41.0      145.
10    -42.8      148.
# ℹ 1,711 more rows
…
Sometimes it is useful to split information in one column into several columns. One good example is if genus and species names are held within one column like scientificName. Let’s separate these names into two columns using separate() from the tidyr package.

library(tidyr)

frogs_separate <- frogs |>
  separate(scientificName, 
           c("genus", "species"), # new column names
           fill = "right",        # fill missing values in right column
           remove = FALSE         # keep input column
           ) |> 
  select(scientificName, genus, species)
frogs_separate

# A tibble: 1,721 × 3
   scientificName  genus   species
   <chr>           <chr>   <chr>  
 1 Litoria         Litoria <NA>   
 2 Litoria         Litoria <NA>   
 3 Litoria ewingii Litoria ewingii
 4 Litoria ewingii Litoria ewingii
 5 Litoria ewingii Litoria ewingii
 6 Litoria ewingii Litoria ewingii
 7 Litoria ewingii Litoria ewingii
 8 Litoria ewingii Litoria ewingii
 9 Litoria ewingii Litoria ewingii
10 Litoria ewingii Litoria ewingii
# ℹ 1,711 more rows

12.2.4 Join columns

Alternatively, it is useful to join information in multiple columns. One good example is to create label names when genus and species names are in separate columns. Let’s rejoin the genus and species columns we created in the previous section using unite() from the tidyr package.

frogs_separate |>
  unite("single_name", 
        genus:species, # select columns to join
        sep = " ",     # separate with a space
        na.rm = TRUE,  # remove NA values
        remove = FALSE # keep input column
        ) |>
  select(genus, species, single_name)

# A tibble: 1,721 × 3
   genus   species single_name    
   <chr>   <chr>   <chr>          
 1 Litoria <NA>    Litoria        
 2 Litoria <NA>    Litoria        
 3 Litoria ewingii Litoria ewingii
 4 Litoria ewingii Litoria ewingii
 5 Litoria ewingii Litoria ewingii
 6 Litoria ewingii Litoria ewingii
 7 Litoria ewingii Litoria ewingii
 8 Litoria ewingii Litoria ewingii
 9 Litoria ewingii Litoria ewingii
10 Litoria ewingii Litoria ewingii
# ℹ 1,711 more rows
…
