ALA’s Data Cleaning Booklet - 11 Dates
…
11.1.4 An example using galah

Data downloaded using the galah package is loaded into R as date and time data (class POSITct). As a result, you can immediately begin extracting date information using the functions above.

plants |>
  mutate(
    year = year(eventDate),
    month = month(eventDate),
    week = isoweek(eventDate),
    day_julian = yday(eventDate)
    ) |>
  select(eventDate, year, month, 
         week, day_julian)

# A tibble: 2,238 × 5
   eventDate            year month  week day_julian
   <dttm>              <dbl> <dbl> <dbl>      <dbl>
 1 1989-05-21 00:00:00  1989     5    20        141
 2 2003-09-24 00:00:00  2003     9    39        267
 3 2000-10-26 00:00:00  2000    10    43        300
 4 2015-09-03 00:00:00  2015     9    36        246
 5 2018-08-07 00:00:00  2018     8    32        219
 6 1990-09-28 00:00:00  1990     9    39        271
 7 NA                     NA    NA    NA         NA
 8 2013-02-25 00:00:00  2013     2     9         56
 9 2016-12-07 00:00:00  2016    12    49        342
10 2007-04-12 00:00:00  2007     4    15        102
# ℹ 2,228 more rows

11.2 Filter

We can filter ALA data to within a specific date.

# return records after 2015
plants |>
  filter(eventDate >= ymd("2016-01-01"))

# A tibble: 712 × 8
   recordID       scientificName taxonConceptID decimalLatitude decimalLongitude
   <chr>          <chr>          <chr>                    <dbl>            <dbl>
 1 008269cf-34d3… Grevillea 'RF… https://id.bi…           -32.6             151.
 2 00cdda2e-80e9… Grevillea 'RF… https://id.bi…           -37.6             145.
 3 0189fd67-f4f8… Grevillea 'RF… https://id.bi…           -36.1             147.
 4 01ba7b99-9d1a… Grevillea 'RF… https://id.bi…           -34.0             151.
 5 01e37f82-fda0… Grevillea 'RF… https://id.bi…           -27.6             153.
 6 033e0a39-b90e… Grevillea 'RF… https://id.bi…           -32.8             151.
 7 0340f847-bdba… Grevillea 'RF… https://id.bi…           -33.7             151.
 8 0346d1b0-0362… Grevillea 'RF… https://id.bi…           -27.1             153.
 9 03482ef3-b9bb… Grevillea 'RF… https://id.bi…           -34.0             151.
10 036ca389-d884… Grevillea 'RF… https://id.bi…           -32.8             151.
# ℹ 702 more rows
# ℹ 3 more variables: eventDate <dttm>, occurrenceStatus <chr>,
#   dataResourceName <chr>

# return records between 2015 & 2018
plants |> 
  filter(eventDate >= ymd("2016-01-01") & 
           eventDate <= ymd("2017-12-31"))

# A tibble: 133 × 8
   recordID       scientificName taxonConceptID decimalLatitude decimalLongitude
   <chr>          <chr>          <chr>                    <dbl>            <dbl>
 1 00cdda2e-80e9… Grevillea 'RF… https://id.bi…           -37.6             145.
 2 01e37f82-fda0… Grevillea 'RF… https://id.bi…           -27.6             153.
 3 03a432ef-495f… Grevillea 'RF… https://id.bi…           -32.7             152.
 4 04c540b4-7d72… Grevillea 'RF… https://id.bi…           -33.5             151.
 5 0666b5f9-07c7… Grevillea 'RF… https://id.bi…           -27.7             153.
 6 098df1cd-311a… Grevillea 'RF… https://id.bi…           -37.5             150.
 7 0ae81d0a-a2ce… Grevillea 'RF… https://id.bi…           -26.4             153.
 8 0b50eb5a-669c… Grevillea 'RF… https://id.bi…           -32.9             152.
 9 0fec0560-a265… Grevillea 'RF… https://id.bi…           -33.7             150.
10 108a211e-c221… Grevillea 'RF… https://id.bi…            NA                NA 
# ℹ 123 more rows
# ℹ 3 more variables: eventDate <dttm>, occurrenceStatus <chr>,
#   dataResourceName <chr>
…
