ALA’s Data Cleaning Booklet - 8 Missing values
…
The output shows that there are 7 columns with missing values, shown in skim_variable, along with information about the number of missing values in n_missing and the proportion of non-missing values in complete_rate.

Next we can return all rows with a missing variable.

geckos |> 
  filter(if_any(everything(), is.na)) |>
  select(scientificName, genus, 
         species, cl22, everything()) # reorder columns

# A tibble: 3,410 × 17
   scientificName    genus species cl22  recordID taxonConceptID decimalLatitude
   <chr>             <chr> <chr>   <chr> <chr>    <chr>                    <dbl>
 1 Gehyra            Gehy… <NA>    Sout… 001949e… https://biodi…          -28.1 
 2 Gehyra            Gehy… <NA>    Nort… 001ab80… https://biodi…          -16.1 
 3 Gehyra australis  Gehy… Gehyra… Nort… 002f70c… https://biodi…          -13.1 
 4 Lepidodactylus p… Lepi… Lepido… <NA>  00336d7… https://biodi…           -8.81
 5 Christinus        Chri… <NA>    Sout… 003e84f… https://biodi…          -35.0 
 6 Gehyra            Gehy… <NA>    Quee… 0046174… https://biodi…          -26.7 
 7 Gehyra nana       Gehy… Gehyra… <NA>  005ea26… https://biodi…           NA   
 8 GEKKONIDAE        <NA>  <NA>    Quee… 007172d… https://biodi…          -19.3 
 9 Gehyra            Gehy… <NA>    Nort… 0073628… https://biodi…          -22.2 
10 Christinus marmo… Chri… Christ… <NA>  007a1a3… https://biodi…          -34.9 
# ℹ 3,400 more rows
# ℹ 10 more variables: decimalLongitude <dbl>, eventDate <dttm>,
#   occurrenceStatus <chr>, dataResourceName <chr>, kingdom <chr>,
#   phylum <chr>, order <chr>, class <chr>, family <chr>, month <dbl>

Or we can specify the specific column with NA values.

geckos |> 
  filter(if_any(cl22, is.na)) |>
  select(scientificName, genus, 
         species, cl22, everything()) # reorder columns

# A tibble: 1,203 × 17
   scientificName    genus species cl22  recordID taxonConceptID decimalLatitude
   <chr>             <chr> <chr>   <chr> <chr>    <chr>                    <dbl>
 1 Lepidodactylus p… Lepi… Lepido… <NA>  00336d7… https://biodi…           -8.81
 2 Gehyra nana       Gehy… Gehyra… <NA>  005ea26… https://biodi…           NA   
 3 Christinus marmo… Chri… Christ… <NA>  007a1a3… https://biodi…          -34.9 
 4 Gehyra punctata   Gehy… Gehyra… <NA>  007a329… https://biodi…           NA   
 5 Christinus marmo… Chri… Christ… <NA>  009be60… https://biodi…          -32.1 
 6 Cyrtodactylus     Cyrt… <NA>    <NA>  00a3522… https://biodi…           -5.73
 7 Hemidactylus fre… Hemi… Hemida… <NA>  00c6832… https://biodi…            1.29
 8 Christinus marmo… Chri… Christ… <NA>  0143054… https://biodi…          -32.0 
 9 Hemidactylus fre… Hemi… Hemida… <NA>  01aae23… https://biodi…           16.0 
10 Cyrtodactylus     Cyrt… <NA>    <NA>  01bdcd8… https://biodi…           -2.00
# ℹ 1,193 more rows
# ℹ 10 more variables: decimalLongitude <dbl>, eventDate <dttm>,
#   occurrenceStatus <chr>, dataResourceName <chr>, kingdom <chr>,
#   phylum <chr>, order <chr>, class <chr>, family <chr>, month <dbl>
…
geckos |> 
  filter(if_any(c(decimalLongitude, decimalLatitude), is.na)) |>
  count()

# A tibble: 1 × 1
      n
  <int>
1   153

geckos |> 
  filter(if_any(c(decimalLongitude, decimalLatitude), is.na)) |>
  select(scientificName, decimalLongitude, 
         decimalLatitude, everything()) # reorder columns

# A tibble: 153 × 17
   scientificName      decimalLongitude decimalLatitude recordID  taxonConceptID
   <chr>                          <dbl>           <dbl> <chr>     <chr>         
 1 Gehyra nana                       NA              NA 005ea268… https://biodi…
 2 Gehyra punctata                   NA              NA 007a3298… https://biodi…
 3 Heteronotia binoei                NA              NA 03a123ed… https://biodi…
 4 Gehyra australis                  NA              NA 05bef070… https://biodi…
 5 Gehyra occidentalis               NA              NA 0846001e… https://biodi…
 6 GEKKONIDAE                        NA              NA 0a078043… https://biodi…
 7 Gehyra xenopus                    NA              NA 0ad77ff9… https://biodi…
 8 Gehyra occidentalis               NA              NA 0c5390b2… https://biodi…
 9 Gehyra punctata                   NA              NA 11bbc940… https://biodi…
10 Gehyra nana                       NA              NA 12d9f935… https://biodi…
# ℹ 143 more rows
# ℹ 12 more variables: eventDate <dttm>, occurrenceStatus <chr>,
#   dataResourceName <chr>, kingdom <chr>, phylum <chr>, order <chr>,
#   class <chr>, family <chr>, genus <chr>, species <chr>, cl22 <chr>,
#   month <dbl>
…
geckos_missing <- geckos |>
  mutate(class = replace(class, 
                         sample(row_number(), 
                                size = ceiling(0.15 * n())), 
                         NA),
         family = replace(family, 
                          sample(row_number(), 
                                 size = ceiling(0.15 * n())), 
                          NA))

geckos_missing |>
  select(scientificName, class, family, genus, species, everything())

# A tibble: 27,070 × 17
   scientificName        class    family   genus species recordID taxonConceptID
   <chr>                 <chr>    <chr>    <chr> <chr>   <chr>    <chr>         
 1 Gehyra dubia          Reptilia Gekkoni… Gehy… Gehyra… 00002a3… https://biodi…
 2 Christinus marmoratus Reptilia Gekkoni… Chri… Christ… 0002970… https://biodi…
 3 Heteronotia binoei    Reptilia Gekkoni… Hete… Hetero… 0007fcc… https://biodi…
 4 Gehyra australis      Reptilia Gekkoni… Gehy… Gehyra… 00087c0… https://biodi…
 5 Hemidactylus frenatus Reptilia Gekkoni… Hemi… Hemida… 000c00b… https://biodi…
 6 Heteronotia binoei    Reptilia Gekkoni… Hete… Hetero… 000cd36… https://biodi…
 7 Christinus marmoratus Reptilia Gekkoni… Chri… Christ… 0018b78… https://biodi…
 8 Gehyra                Reptilia Gekkoni… Gehy… <NA>    001949e… https://biodi…
 9 Heteronotia binoei    Reptilia Gekkoni… Hete… Hetero… 0019729… https://biodi…
10 Gehyra                Reptilia Gekkoni… Gehy… <NA>    001ab80… https://biodi…
# ℹ 27,060 more rows
# ℹ 10 more variables: decimalLatitude <dbl>, decimalLongitude <dbl>,
#   eventDate <dttm>, occurrenceStatus <chr>, dataResourceName <chr>,
#   kingdom <chr>, phylum <chr>, order <chr>, cl22 <chr>, month <dbl>

If you have a list of taxonomic names with complete ranking information from your preferred taxonomic naming authority, you can use this information to back-fill your missing data columns. In our case, we can use names from ALA’s taxonomic backbone.

First we’ll get the complete list of Gekkonidae taxonomic rank names using galah.

geckos_species_list <- galah_call() |>
  identify("gekkonidae") |>
  atlas_species()

geckos_species_list

# A tibble: 80 × 10
   species_guid           species author kingdom phylum class order family genus
   <chr>                  <chr>   <chr>  <chr>   <chr>  <chr> <chr> <chr>  <chr>
 1 https://biodiversity.… Hetero… (Gray… Animal… Chord… Rept… Squa… Gekko… Hete…
 2 https://biodiversity.… Christ… (Gray… Animal… Chord… Rept… Squa… Gekko… Chri…
 3 https://biodiversity.… Gehyra… (Dumé… Animal… Chord… Rept… Squa… Gekko… Gehy…
 4 https://biodiversity.… Gehyra… (Macl… Animal… Chord… Rept… Squa… Gekko… Gehy…
 5 https://biodiversity.… Hemida… Dumér… Animal… Chord… Rept… Squa… Gekko… Hemi…
 6 https://biodiversity.… Gehyra… Hutch… Animal… Chord… Rept… Squa… Gekko… Gehy…
 7 https://biodiversity.… Gehyra… Storr… Animal… Chord… Rept… Squa… Gekko… Gehy…
 8 https://biodiversity.… Gehyra… Gray,… Animal… Chord… Rept… Squa… Gekko… Gehy…
 9 https://biodiversity.… Gehyra… Storr… Animal… Chord… Rept… Squa… Gekko… Gehy…
10 https://biodiversity.… Lepido… (Dumé… Animal… Chord… Rept… Squa… Gekko… Lepi…
# ℹ 70 more rows
# ℹ 1 more variable: vernacular_name <chr>
…
If a record is not identified down to the necessary taxonomic level required for your analysis (e.g. down to species or sub-species level), then the record should be removed.

On handy tip you can use with the galah package is to add the column taxonRank. This column usefully shows the taxonomic level of names in scientificName2. taxonRank can be useful because we can filter to only include records down to a specific rank.

geckos_rank <- galah_call() |>
  identify("gekkonidae") |>
  filter(year == 2013) |>
  select(taxonRank, scientificName) |>
  atlas_occurrences()

geckos_rank |>
  filter(taxonRank == "species")

# A tibble: 1,814 × 2
   taxonRank scientificName       
   <chr>     <chr>                
 1 species   Gehyra koira         
 2 species   Gehyra nana          
 3 species   Gehyra australis     
 4 species   Gehyra kimberleyi    
 5 species   Gehyra dubia         
 6 species   Christinus marmoratus
 7 species   Gehyra versicolor    
 8 species   Heteronotia binoei   
 9 species   Gehyra dubia         
10 species   Gehyra australis     
# ℹ 1,804 more rows

However, it is still possible to filter records using the tools above without using the taxonRank column.

geckos_filtered <- geckos |>
  drop_na(genus) |>
  select(scientificName, genus, everything()) # reorder columns
geckos_filtered

# A tibble: 26,416 × 17
   scientificName genus recordID taxonConceptID decimalLatitude decimalLongitude
   <chr>          <chr> <chr>    <chr>                    <dbl>            <dbl>
 1 Gehyra dubia   Gehy… 00002a3… https://biodi…           -24.1             151.
 2 Christinus ma… Chri… 0002970… https://biodi…           -34.7             139.
 3 Heteronotia b… Hete… 0007fcc… https://biodi…           -12.6             132.
 4 Gehyra austra… Gehy… 00087c0… https://biodi…           -14.4             129.
 5 Hemidactylus … Hemi… 000c00b… https://biodi…           -27.5             153.
 6 Heteronotia b… Hete… 000cd36… https://biodi…           -13.3             131.
 7 Christinus ma… Chri… 0018b78… https://biodi…           -36.1             147.
 8 Gehyra         Gehy… 001949e… https://biodi…           -28.1             140.
 9 Heteronotia b… Hete… 0019729… https://biodi…           -12.7             131.
10 Gehyra         Gehy… 001ab80… https://biodi…           -16.1             130.
# ℹ 26,406 more rows
# ℹ 11 more variables: eventDate <dttm>, occurrenceStatus <chr>,
#   dataResourceName <chr>, kingdom <chr>, phylum <chr>, order <chr>,
#   class <chr>, family <chr>, species <chr>, cl22 <chr>, month <dbl>
…
