ALA’s Data Cleaning Booklet - 10 Strings
…
character(0)

We can confirm that there are no upper case matches by subsetting unique values that have lower case letters to see what is going on. This shows us that Insecta is inputted entirely in lowercase.

str_subset(unique(bees$class), "[:lower:]")

[1] "insecta"

We can correct the lower case formatting as below, remember to check the fix before overwriting/removing the erroneous column(s)

bees |>
  mutate(class_corrected = str_to_sentence(class)) |>
  select(starts_with("class"))

# A tibble: 1,139 × 2
   class   class_corrected
   <chr>   <chr>          
 1 insecta Insecta        
 2 insecta Insecta        
 3 insecta Insecta        
 4 insecta Insecta        
 5 insecta Insecta        
 6 insecta Insecta        
 7 insecta Insecta        
 8 insecta Insecta        
 9 insecta Insecta        
10 insecta Insecta        
# ℹ 1,129 more rows
…
10.4.2 Seperators

In a taxonomic data, separators such as, spaces and underscore are found in scientific names and are used to delineate the genus and species name. While it is personal choice which separator you use, it is good practice to be consistent with your choice. Consistency ensures that unique values of scientific name truly reflects unique species and not due to inconsistencies.

Try tabyl-ing your taxonomic columns to check if you have any inconsistencies first

library(janitor)

plants |>
  pull(scientific_name) |>
  tabyl() |>
  tibble()

# A tibble: 623 × 3
   `pull(plants, scientific_name)`         n  percent
   <chr>                               <int>    <dbl>
 1 Acacia asparagoides                     2 0.000962
 2 Acacia barakulensis                     1 0.000481
 3 Acacia barringtonensis                  2 0.000962
 4 Acacia beadleana                        1 0.000481
 5 Acacia betchei                          6 0.00289 
 6 Acacia blayana                          2 0.000962
 7 Acacia brunioides                       1 0.000481
 8 Acacia brunioides subsp. brunioides     6 0.00289 
 9 Acacia brunioides subsp. granitica      1 0.000481
10 Acacia bulgaensis                       3 0.00144 
# ℹ 613 more rows

Consistent taxonomic formatting may not be an issue if you are downloading data from one single source such as the ALA where scientific names are already formatted consistently e.g. “Moloch horridus”. This may not be the case when consolidating data from multiple sources.

Below is code to create an underscore scientific name from one that is separated with a space. Remember to check your changes

plants_updated <- plants |>
  mutate(scientific_name_undersc = str_replace_all(scientific_name, " ", "_"))

plants_updated |>
  pull(scientific_name_undersc) |>
  tabyl() |>
  tibble()

# A tibble: 623 × 3
   `pull(plants_updated, scientific_name_undersc)`     n  percent
   <chr>                                           <int>    <dbl>
 1 Acacia_asparagoides                                 2 0.000962
 2 Acacia_barakulensis                                 1 0.000481
 3 Acacia_barringtonensis                              2 0.000962
 4 Acacia_beadleana                                    1 0.000481
 5 Acacia_betchei                                      6 0.00289 
 6 Acacia_blayana                                      2 0.000962
 7 Acacia_brunioides                                   1 0.000481
 8 Acacia_brunioides_subsp._brunioides                 6 0.00289 
 9 Acacia_brunioides_subsp._granitica                  1 0.000481
10 Acacia_bulgaensis                                   3 0.00144 
# ℹ 613 more rows
…
10.5 Simple case study

We will use the janitor R package to explore whether our elephant data has any string issues. The function tabyl will compute a counts and percent of total rows for each unique value.

library(dplyr)
library(janitor)
african_ele <- arrow::read_parquet("../data/gbif/elephant")
african_ele |>
  pull(stateProvince) |>
  tabyl() |>
  tibble() |>
  print(n = 20)

# A tibble: 199 × 4
   `pull(african_ele, stateProvince)`     n   percent valid_percent
   <chr>                              <int>     <dbl>         <dbl>
 1 Agadez                                 1 0.0000556     0.0000867
 2 Al Qahirah                             1 0.0000556     0.0000867
 3 Alibori                              601 0.0334        0.0521   
 4 Arusha                               333 0.0185        0.0289   
 5 Arusha Region                          1 0.0000556     0.0000867
 6 Atacora                              366 0.0204        0.0317   
 7 Atakora                              249 0.0139        0.0216   
 8 Balaka                                 8 0.000445      0.000694 
 9 Bassila                                1 0.0000556     0.0000867
10 Batha                                  1 0.0000556     0.0000867
11 Bauchi                                 7 0.000389      0.000607 
12 Bengo                                  3 0.000167      0.000260 
13 Bizerte                                2 0.000111      0.000173 
14 Borgou                                 7 0.000389      0.000607 
15 Bouaflé                                3 0.000167      0.000260 
16 Bouna                                  1 0.0000556     0.0000867
17 Budongo Forest                         1 0.0000556     0.0000867
18 Bushenyi                              85 0.00473       0.00737  
19 Cabo Delgado                           3 0.000167      0.000260 
20 Cape Prov.                             2 0.000111      0.000173 
# ℹ 179 more rows
…
# Its good practice to check the other values were not affected by your corrections
# Here we are removing the NA with `drop_na` and subsetting unique rows with `distinct`
african_ele_2 %>%
  select(starts_with("stateProvince")) %>%
  tidyr::drop_na() %>%
  distinct()

# A tibble: 198 × 2
   stateProvince    stateProvince_clean
   <chr>            <glue>             
 1 Southern         Southern           
 2 Taita Taveta     Taita Taveta       
 3 Mara             Mara               
 4 Arusha           Arusha             
 5 Simiyu           Simiyu             
 6 Morogoro         Morogoro           
 7 Mashonaland West Mashonaland West   
 8 Mpumalanga       Mpumalanga         
 9 KwaZulu-Natal    KwaZulu-Natal      
10 Manicaland       Manicaland         
# ℹ 188 more rows

# Final check
# Check with the original code that detected the issue
african_ele_2 %>%
  pull(stateProvince_clean) %>%
  tabyl() %>%
  tibble() %>%
  print(n = 20)

# A tibble: 197 × 4
   .                  n   percent valid_percent
   <glue>         <int>     <dbl>         <dbl>
 1 Agadez             1 0.0000556     0.0000867
 2 Al Qahirah         1 0.0000556     0.0000867
 3 Alibori          601 0.0334        0.0521   
 4 Arusha           333 0.0185        0.0289   
 5 Arusha Region      1 0.0000556     0.0000867
 6 Atacora          366 0.0204        0.0317   
 7 Atakora          249 0.0139        0.0216   
 8 Balaka             8 0.000445      0.000694 
 9 Bassila            1 0.0000556     0.0000867
10 Batha              1 0.0000556     0.0000867
11 Bauchi             7 0.000389      0.000607 
12 Bengo              3 0.000167      0.000260 
13 Bizerte            2 0.000111      0.000173 
14 Borgou             7 0.000389      0.000607 
15 Bouaflé            3 0.000167      0.000260 
16 Bouna              1 0.0000556     0.0000867
17 Budongo Forest     1 0.0000556     0.0000867
18 Bushenyi          85 0.00473       0.00737  
19 Cabo Delgado       3 0.000167      0.000260 
20 Cape Province      3 0.000167      0.000260 
# ℹ 177 more rows
…
