ALA’s Data Cleaning Booklet - 9 Unexpected values
…
# A tibble: 1 × 5
  countryCode locality scientificName  decimalLatitude decimalLongitude
  <chr>       <chr>    <chr>                     <dbl>            <dbl>
1 JP          mt bucca Litoria chloris            24.5             152.

The locality column reveals the observation was made in “mt bucca”. This is surprising to see because Mt Bucca is a mountain in Queensland!

When we look at our Japan data point’s decimalLongitude and decimalLatitude alongside other values in our data, it becomes clear that the Japan data point seems to sit within the same numerical range as other points, but is positive rather than negative.

frogs |>
  arrange(desc(countryCode)) |>
  select(countryCode, decimalLongitude, decimalLatitude) |>
  print(n = 5)

# A tibble: 25 × 3
  countryCode decimalLongitude decimalLatitude
  <chr>                  <dbl>           <dbl>
1 JP                      152.            24.5
2 AU                      153.           -28.4
3 AU                      153.           -28.4
4 AU                      152.           -27.4
5 AU                      153.           -30.1
# ℹ 20 more rows
…
