Cleaning Biodiversity Data in R - Appendix B — Big data
…
…and perform some common operations on it before finally bringing it into memory with collect().

pardalotes |> 
  select(species, year, cl22) |> 
  filter(species != "NA", cl22 != "NA")|> 
  group_by(species, year, cl22) |> 
  summarise(count = n(), .groups = "drop") |>
  collect()

# A tibble: 208 × 4
   species               year cl22                         count
   <chr>                <int> <chr>                        <int>
 1 Pardalotus striatus   2019 Queensland                    9484
 2 Pardalotus striatus   2018 New South Wales               6702
 3 Pardalotus punctatus  2021 Victoria                     19799
 4 Pardalotus punctatus  2016 Australian Capital Territory  2315
 5 Pardalotus punctatus  2020 New South Wales               7990
 6 Pardalotus striatus   2015 New South Wales               3294
 7 Pardalotus striatus   2022 Queensland                   14627
 8 Pardalotus punctatus  2020 Queensland                    1174
 9 Pardalotus striatus   2020 Victoria                     11009
10 Pardalotus striatus   2018 Victoria                      9484
# ℹ 198 more rows
…
library(duckdb)
library(dbplyr)  

con <- dbConnect(duckdb()) 
duckdb_register(con, "pardalotes", pardalotes)  
  
dplyr::tbl(con, "pardalotes") |>
  select(species, year, cl22) |> 
  filter(species != "NA", cl22 != "NA")|> 
  group_by(species, year, cl22) |> 
  summarise(count = n(), .groups = "drop") |>
  collect()

# A tibble: 208 × 4
   species                year cl22                         count
   <chr>                 <int> <chr>                        <dbl>
 1 Pardalotus striatus    2018 New South Wales               6702
 2 Pardalotus punctatus   2022 New South Wales              11772
 3 Pardalotus rubricatus  2022 Western Australia              204
 4 Pardalotus punctatus   2016 Victoria                      8278
 5 Pardalotus striatus    2019 New South Wales               4900
 6 Pardalotus punctatus   2017 Australian Capital Territory  2651
 7 Pardalotus punctatus   2021 New South Wales              12072
 8 Pardalotus punctatus   2023 Queensland                     653
 9 Pardalotus punctatus   2016 Western Australia              395
10 Pardalotus punctatus   2020 Australian Capital Territory  4286
# ℹ 198 more rows
…
