Appendix A — Where to get data – Cleaning Biodiversity Data in R
…
galah is an interface for accessing biodiversity data like occurrences, counts, species and media (e.g., images & sounds) from the Living Atlases and GBIF.

In the majority of examples over this book we will be using the galah package. One benefit of using galah is that it uses tidy syntax (much like dplyr) to edit & filter download queries. Additionally, galah can access data from 10 other Living Atlases and GBIF.

library(galah)

galah_config(email = "your-email-here") # Registered ALA email

galah_call() |>
  identify("perameles") |>
  filter(year == 2001) |>
  atlas_occurrences()

# A tibble: 344 × 8
   recordID       scientificName taxonConceptID decimalLatitude decimalLongitude
   <chr>          <chr>          <chr>                    <dbl>            <dbl>
 1 0053a1f3-b5e1… Perameles nas… https://biodi…           -34.4             151.
 2 0135db9a-80ff… Perameles nas… https://biodi…           -33.3             151.
 3 013b9cb6-7d89… Perameles nas… https://biodi…           -28.2             153.
 4 01c5d084-f4a5… Perameles nas… https://biodi…           -29.2             153.
 5 02943584-050a… Perameles nas… https://biodi…           -33.3             151.
 6 02af5fdd-4800… Perameles nas… https://biodi…           -29.3             152.
 7 02c5d0db-913f… Perameles nas… https://biodi…           -31.2             153.
 8 04ad578b-af11… Perameles nas… https://biodi…           -26.7             152.
 9 0518bfb9-cf9d… Perameles nas… https://biodi…           -34.3             151.
10 05496ff9-d61e… Perameles nas… https://biodi…           -33.3             151.
# ℹ 334 more rows
# ℹ 3 more variables: eventDate <dttm>, occurrenceStatus <chr>,
#   dataResourceName <chr>
…
