Cleaning occurrence data - Downloading data
…
Another way to download data is by filtering to return observations within a bounding box.

# Show how to download data in galah with a bounding box

This can be useful when you want to be sure to include records on the border or just outside the border of a defined region (which might affect predictions of where species live in a model).

It can also be useful if you want to filter data yourself.

Selecting specific data columns

By default, atlas_occurrences will return a tibble with a selection of columns containing taxonomic and spatial data as well as other metadata. Alternatively, you can use galah_select to subset the columns that are relevant for your work. To see all available fields you can choose from:

show_all(fields) 

# A tibble: 626 × 4
   id                  description                                   type  link 
   <chr>               <chr>                                         <chr> <chr>
 1 _nest_parent_       <NA>                                          fiel… <NA> 
 2 _nest_path_         <NA>                                          fiel… <NA> 
 3 _root_              <NA>                                          fiel… <NA> 
 4 abcdTypeStatus      ABCD field in use by herbaria                 fiel… <NA> 
 5 acceptedNameUsage   http://rs.tdwg.org/dwc/terms/acceptedNameUsa… fiel… <NA> 
 6 acceptedNameUsageID http://rs.tdwg.org/dwc/terms/acceptedNameUsa… fiel… <NA> 
 7 accessRights        <NA>                                          fiel… <NA> 
 8 annotationsDoi      <NA>                                          fiel… <NA> 
 9 annotationsUid      <NA>                                          fiel… <NA> 
10 assertionUserId     User ID of the person who has made an assert… fiel… <NA> 
# ℹ 616 more rows
…
