ALA Data Cleaning - 6 Download data
…
Checking queue
Current queue size: 1 inqueue . running .

If we filter our data to data without an “accepted” taxonomic status and compare a random group of names (rows 30 to 50), we’ll see a few names with differing names between the raw_scientificName and scientificName

library(dplyr)
orchids |>
  filter(
    is.na(taxonomicStatus), # return names that aren't flagged as "accepted"
    !scientificName...4 %in% scientificName...9
  ) |>
  select(scientificName...4, scientificName...9) |>
  slice(30:50)

# A tibble: 21 × 2
   scientificName...4              scientificName...9                           
   <chr>                           <chr>                                        
 1 Dendrobium concavissimum        Dendrobium concavissimum J.J.Sm.             
 2 Dendrobium concavissimum        Dendrobium concavissimum J.J.Sm.             
 3 Dendrobium concavissimum        Dendrobium concavissimum J.J.Sm.             
 4 Dendrobium concavissimum        Dendrobium concavissimum J.J.Sm.             
 5 Dendrobium sect. Calyptrochilus Dendrobium sect. Calyptrochilus Schltr.      
 6 Dendrobium sect. Calyptrochilus Dendrobium sect. Calyptrochilus Schltr.      
 7 Dendrobium sect. Monophyllaea   Monophyllaea                                 
 8 Dendrobium protractum           Dendrobium protractum Dauncey                
 9 Dendrobium protractum           Dendrobium protractum Dauncey                
10 Dendrobium sect. Calyptrochilus Pedilonum sect. Calyptrochilus (Schltr.) Bri…
# ℹ 11 more rows
…
pink_robin_tractable <- galah_call() |>
  galah_identify("Petroica rodinogaster") |>
  galah_filter(basisOfRecord == tractable_records) |>
  atlas_occurrences()

Checking queue
Current queue size: 1 inqueue 

6.6.3 Assertions

Data infrastructures use assertions to internally grade the quality, completeness and consistency of each occurrence record. Assertions take values of either 1 or 0, indicating the presence or absence of the data quality issue. Note that assertions may vary depending what atlas you have configured to. You can see the available assertions and their descriptions using:

show_all("assertions")

# A tibble: 114 × 4
   id                                 description                 category type 
   <chr>                              <chr>                       <chr>    <chr>
 1 AMBIGUOUS_COLLECTION               Ambiguous collection        Warning  asse…
 2 AMBIGUOUS_INSTITUTION              Ambiguous institution       Warning  asse…
 3 BASIS_OF_RECORD_INVALID            Basis of record badly form… Warning  asse…
 4 biosecurityIssue                   Biosecurity issue           Error    asse…
 5 COLLECTION_MATCH_FUZZY             Collection match fuzzy      Warning  asse…
 6 COLLECTION_MATCH_NONE              Collection not matched      Warning  asse…
 7 CONTINENT_COUNTRY_MISMATCH         Continent country mismatch  Warning  asse…
 8 CONTINENT_DERIVED_FROM_COORDINATES Continent derived from coo… Warning  asse…
 9 CONTINENT_INVALID                  Continent invalid           Warning  asse…
10 COORDINATE_INVALID                 Coordinate invalid          Warning  asse…
# ℹ 104 more rows
…
