ALA Data Cleaning - 11 Strings
…
11.4 Simple case study

We will use the janitor R package to explore whether our elephant data has any string issues. The function tabyl will compute a counts and percent of total rows for each unique value.

library(dplyr)
library(janitor)
african_ele <- arrow::read_parquet("data/gbif/elephant")
african_ele |>
  pull(stateProvince) |>
  tabyl() |>
  tibble() |>
  print(n = 20)

# A tibble: 197 × 4
   `pull(african_ele, stateProvince)`     n   percent valid_percent
   <chr>                              <int>     <dbl>         <dbl>
 1 Agadez                                 1 0.0000561     0.0000879
 2 Al Qahirah                             1 0.0000561     0.0000879
 3 Alibori                              601 0.0337        0.0528   
 4 Arusha                               327 0.0183        0.0287   
 5 Arusha Region                          1 0.0000561     0.0000879
 6 Atacora                              366 0.0205        0.0322   
 7 Atakora                              249 0.0140        0.0219   
 8 Balaka                                 8 0.000449      0.000703 
 9 Bassila                                1 0.0000561     0.0000879
10 Batha                                  1 0.0000561     0.0000879
11 Bauchi                                 7 0.000393      0.000615 
12 Bengo                                  3 0.000168      0.000264 
13 Bizerte                                2 0.000112      0.000176 
14 Borgou                                 7 0.000393      0.000615 
15 Bouaflé                                3 0.000168      0.000264 
16 Bouna                                  1 0.0000561     0.0000879
17 Budongo Forest                         1 0.0000561     0.0000879
18 Bushenyi                              84 0.00471       0.00738  
19 Cabo Delgado                           3 0.000168      0.000264 
20 Cape Prov.                             2 0.000112      0.000176 
# ℹ 177 more rows
…
# Its good practice to check the other values were not affected by your corrections
# Here we are removing the NA with `drop_na` and subsetting unique rows with `distinct`
african_ele_2 %>%
  select(starts_with("stateProvince")) %>%
  tidyr::drop_na() %>%
  distinct()

# A tibble: 196 × 2
   stateProvince    stateProvince_clean
   <chr>            <glue>             
 1 Southern         Southern           
 2 Taita Taveta     Taita Taveta       
 3 Mara             Mara               
 4 Arusha           Arusha             
 5 Simiyu           Simiyu             
 6 Morogoro         Morogoro           
 7 Mashonaland West Mashonaland West   
 8 Mpumalanga       Mpumalanga         
 9 KwaZulu-Natal    KwaZulu-Natal      
10 Manicaland       Manicaland         
# ℹ 186 more rows

# Final check
# Check with the original code that detected the issue
african_ele_2 %>%
  pull(stateProvince_clean) %>%
  tabyl() %>%
  tibble() %>%
  print(n = 20)

# A tibble: 195 × 4
   .                  n   percent valid_percent
   <glue>         <int>     <dbl>         <dbl>
 1 Agadez             1 0.0000561     0.0000879
 2 Al Qahirah         1 0.0000561     0.0000879
 3 Alibori          601 0.0337        0.0528   
 4 Arusha           327 0.0183        0.0287   
 5 Arusha Region      1 0.0000561     0.0000879
 6 Atacora          366 0.0205        0.0322   
 7 Atakora          249 0.0140        0.0219   
 8 Balaka             8 0.000449      0.000703 
 9 Bassila            1 0.0000561     0.0000879
10 Batha              1 0.0000561     0.0000879
11 Bauchi             7 0.000393      0.000615 
12 Bengo              3 0.000168      0.000264 
13 Bizerte            2 0.000112      0.000176 
14 Borgou             7 0.000393      0.000615 
15 Bouaflé            3 0.000168      0.000264 
16 Bouna              1 0.0000561     0.0000879
17 Budongo Forest     1 0.0000561     0.0000879
18 Bushenyi          84 0.00471       0.00738  
19 Cabo Delgado       3 0.000168      0.000264 
20 Cape Province      3 0.000168      0.000264 
# ℹ 175 more rows
…
