ALA Data Cleaning - 9 Taxonomy II
…
new_names

[1] "is_marine"      "is_brackish"    "is_freshwater"  "is_terrestrial"
[5] "is_extinct"    

# Replace old with new
names(habitat_data)[-1] <- new_names

# Join habitat data by VALID_NAME
afd %>% left_join(habitat_data, by = join_by(VALID_NAME == valid_name))

# A tibble: 49 × 37
   GROUP_NAME HIGHER_CLASSIFICATION    KINGDOM PHYLUM SUBPHYLUM SUPERCLASS CLASS
   <chr>      <chr>                    <chr>   <chr>  <chr>     <lgl>      <chr>
 1 ANNELIDA   Phylum ANNELIDA, Class … ANIMAL… ANNEL… <NA>      NA         POLY…
 2 ARTHROPODA Phylum ARTHROPODA, Subp… ANIMAL… ARTHR… CRUSTACEA NA         MAXI…
 3 ARTHROPODA Phylum ARTHROPODA, Subp… ANIMAL… ARTHR… CRUSTACEA NA         MALA…
 4 ARTHROPODA Phylum ARTHROPODA, Subp… ANIMAL… ARTHR… HEXAPODA  NA         INSE…
 5 ARTHROPODA Phylum ARTHROPODA, Subp… ANIMAL… ARTHR… CRUSTACEA NA         MALA…
 6 ARTHROPODA Phylum ARTHROPODA, Subp… ANIMAL… ARTHR… HEXAPODA  NA         INSE…
 7 ARTHROPODA Phylum ARTHROPODA, Subp… ANIMAL… ARTHR… CRUSTACEA NA         MALA…
 8 ARTHROPODA Phylum ARTHROPODA, Subp… ANIMAL… ARTHR… CRUSTACEA NA         MALA…
 9 ARTHROPODA Phylum ARTHROPODA, Subp… ANIMAL… ARTHR… CRUSTACEA NA         MALA…
10 ARTHROPODA Phylum ARTHROPODA, Subp… ANIMAL… ARTHR… CRUSTACEA NA         OSTR…
# ℹ 39 more rows
# ℹ 30 more variables: SUBCLASS <chr>, SUPERORDER <chr>, ORDER <chr>,
#   SUBORDER <chr>, SUPERFAMILY <chr>, FAMILY <chr>, SUBFAMILY <chr>,
#   SUPERTRIBE <lgl>, TRIBE <chr>, SUBTRIBE <lgl>, GENUS <chr>,
#   SUB_GENUS <chr>, SPECIES <chr>, SUB_SPECIES <chr>, AUTHOR <chr>,
#   YEAR <dbl>, CHANGED_COMBINATION <chr>, VALID_NAME <chr>,
#   COMPLETE_NAME <chr>, SYNONYMS <chr>, CHANGED_COMB_NAMES <chr>, …

One issue you might face is that higher taxonomy from different providers may not match. If this is the case, we suggest choosing the data provider with the higher taxonomy that is consistent with your naming authority and use it to back fill the higher taxonomy of the other data sources

higher_taxonomy <- inverts %>%
  select(scientificName) %>% 
  distinct() %>% 
  search_taxa()

higher_taxonomy

# A tibble: 36 × 15
   search_term     scientific_name scientific_name_auth…¹ taxon_concept_id rank 
   <chr>           <chr>           <chr>                  <chr>            <chr>
 1 Palirhoeus eat… Palirhoeus eat… (C.O. Waterhouse, 187… https://biodive… spec…
 2 Lasaea austral… Lasaea austral… (Lamarck, 1818)        https://biodive… spec…
 3 Turbonilla tia… Turbonilla tia… May, 1911              https://biodive… spec…
 4 Tucetona flabe… Tucetona flabe… (Tenison-Woods, 1878)  https://biodive… spec…
 5 Achelia transf… Achelia transf… Stock, 1973            https://biodive… spec…
 6 Coralliophila … Coralliophila … Kosuge, 1986           https://biodive… spec…
 7 Amphitethya st… Amphitethya st… (Carter, 1886)         https://biodive… spec…
 8 Australocyther… Australocyther… McKenzie, 1967         https://biodive… spec…
 9 Plesiopenaeus … Plesiopenaeus … (Spence Bate, 1881)    https://biodive… spec…
10 Chlorodiloma c… Chlorodiloma c… (Philippi, 1849)       https://biodive… spec…
# ℹ 26 more rows
# ℹ abbreviated name: ¹​scientific_name_authorship
# ℹ 10 more variables: match_type <chr>, kingdom <chr>, phylum <chr>,
#   class <chr>, order <chr>, family <chr>, genus <chr>, species <chr>,
#   issues <chr>, vernacular_name <chr>
…
library(galah)
library(skimr)

galah_config(email = Sys.getenv("ALA_EMAIL"),
             atlas = "Australia")

bilby <- galah_call() |> 
  galah_identify("Macrotis lagotis") |> 
  galah_filter(year == 2022) |> 
  galah_select(group = "basic", sex, lifeStage, reproductiveCondition) |> 
  atlas_occurrences()

bilby |> filter(!sex == "MALE")

# A tibble: 35 × 11
   decimalLatitude decimalLongitude eventDate           scientificName  
             <dbl>            <dbl> <dttm>              <chr>           
 1           -34.2             143. 2022-06-16 14:00:00 Macrotis lagotis
 2           -34.2             143. 2022-06-14 14:00:00 Macrotis lagotis
 3           -34.2             143. 2022-03-22 13:00:00 Macrotis lagotis
 4           -34.2             143. 2022-03-22 13:00:00 Macrotis lagotis
 5           -34.2             143. 2022-03-22 13:00:00 Macrotis lagotis
 6           -34.2             143. 2022-03-23 13:00:00 Macrotis lagotis
 7           -34.2             143. 2022-03-21 13:00:00 Macrotis lagotis
 8           -34.2             143. 2022-06-12 14:00:00 Macrotis lagotis
 9           -34.2             143. 2022-03-23 13:00:00 Macrotis lagotis
10           -34.2             143. 2022-06-12 14:00:00 Macrotis lagotis
# ℹ 25 more rows
# ℹ 7 more variables: taxonConceptID <chr>, recordID <chr>,
#   dataResourceName <chr>, occurrenceStatus <chr>, sex <chr>, lifeStage <lgl>,
#   reproductiveCondition <chr>
…
# Query WoRMs
marine_check <- map_dfr(my_species,
       possibly(~worrms::wm_records_name(name = .x) |> mutate(search_term = .x))
)

# Filter species that are TRUE for isMarine
marine_inverts <- marine_check |> 
  filter(isMarine == TRUE) |> 
  select(search_term)

# Exclude marine invertebrates
inverts |> filter(!scientificName %in% marine_inverts)

# A tibble: 2,637 × 9
   decimalLatitude decimalLongitude eventDate           scientificName   
             <dbl>            <dbl> <dttm>              <chr>            
 1           -46.9             37.8 1983-04-01 00:00:00 Palirhoeus eatoni
 2           -46.9             37.8 1984-09-01 00:00:00 Palirhoeus eatoni
 3           -46.9             37.9 1986-04-01 00:00:00 Palirhoeus eatoni
 4           -46.6             38.0 1985-04-01 00:00:00 Palirhoeus eatoni
 5           -46.6             38.0 1983-05-01 00:00:00 Palirhoeus eatoni
 6           -46.6             38.0 1984-09-01 00:00:00 Palirhoeus eatoni
 7           -46.6             38.0 1984-04-01 00:00:00 Palirhoeus eatoni
 8           -43.6            148.  NA                  Lasaea australis 
 9           -43.6            147.  2008-12-28 00:00:00 Lasaea australis 
10           -43.6            147.  2008-12-28 00:00:00 Lasaea australis 
# ℹ 2,627 more rows
# ℹ 5 more variables: taxonConceptID <chr>, recordID <chr>,
#   dataResourceName <chr>, occurrenceStatus <chr>, genus <chr>
…
