ALA’s Data Cleaning Book - 3 Column classes & names
…
$genus
[1] "character"

$species
[1] "character"

If you are using a tibble, the class is also displayed below each column name when you view your table. Depending on whether your output is in the console or inline, your tibble may be formatted as a paged table in R Studio.

Console
Inline

frogs

# A tibble: 1,760 × 10
   recordID       scientificName taxonConceptID decimalLatitude decimalLongitude
   <chr>          <chr>          <chr>                    <dbl>            <dbl>
 1 00168ca6-84d0… Litoria ranif… https://biodi…           -41.2             146.
 2 00250163-ec50… Litoria ranif… https://biodi…           -41.2             147.
 3 003e0f63-9f95… Litoria ewing… https://biodi…           -42.9             148.
 4 00410554-5289… Litoria ewing… https://biodi…           -41.7             147.
 5 0070521f-bb45… Litoria ewing… https://biodi…           -43.1             147.
 6 0081e7ef-459b… Litoria ewing… https://biodi…           -43.2             147.
 7 0086def1-8415… Litoria ewing… https://biodi…           -41.2             147.
 8 00b40ee7-074b… Litoria ewing… https://biodi…           -41.5             147.
 9 014584b3-5fc7… Litoria ewing… https://biodi…           -41.0             145.
10 0160369c-f2f6… Litoria ewing… https://biodi…           -42.8             148.
# ℹ 1,750 more rows
# ℹ 5 more variables: eventDate <dttm>, occurrenceStatus <chr>,
#   dataResourceName <chr>, genus <chr>, species <chr>
…
Renaming columns is a frequent data cleaning task. Column names might need renaming to make it clearer what data they contain, or to make a name consistent with another dataset prior to merging their contents.

There are several ways to rename columns in R.

rename()
names() + <-

dplyr::rename() provides an easy way to rename one or more columns.

frogs |>
  select(decimalLatitude, decimalLongitude) |>
  rename(latitude = decimalLatitude,
         longitude = decimalLongitude) 

# A tibble: 1,760 × 2
   latitude longitude
      <dbl>     <dbl>
 1    -41.2      146.
 2    -41.2      147.
 3    -42.9      148.
 4    -41.7      147.
 5    -43.1      147.
 6    -43.2      147.
 7    -41.2      147.
 8    -41.5      147.
 9    -41.0      145.
10    -42.8      148.
# ℹ 1,750 more rows

rename_with() is a more powerful version of rename(). It allows more advanced renaming by using functions to rename matching columns. Here we convert column names starting with “decimal” to uppercase.

frogs |>
  select(decimalLatitude, decimalLongitude) |>
  rename_with(toupper, starts_with("decimal"))

# A tibble: 1,760 × 2
   DECIMALLATITUDE DECIMALLONGITUDE
             <dbl>            <dbl>
 1           -41.2             146.
 2           -41.2             147.
 3           -42.9             148.
 4           -41.7             147.
 5           -43.1             147.
 6           -43.2             147.
 7           -41.2             147.
 8           -41.5             147.
 9           -41.0             145.
10           -42.8             148.
# ℹ 1,750 more rows

And here we append the prefix “new_” to columns with names containing “decimal”, and convert them to lowercase.

frogs |>
  select(decimalLatitude, decimalLongitude) |>
1  rename_with( ~ tolower(gsub("decimal", "new_", .x, fixed = TRUE)))

1

.x is shorthand for the variable this function will be applied to. In this case, .x refers to our frogs data frame.

# A tibble: 1,760 × 2
   new_latitude new_longitude
          <dbl>         <dbl>
 1        -41.2          146.
 2        -41.2          147.
 3        -42.9          148.
 4        -41.7          147.
 5        -43.1          147.
 6        -43.2          147.
 7        -41.2          147.
 8        -41.5          147.
 9        -41.0          145.
10        -42.8          148.
# ℹ 1,750 more rows

Index a specific column name in base R with the help of names(). Assign a new column name to replace an old column name using the assign operator <-.

names(frogs)[names(frogs) == "decimalLatitude"] <- "latitude"
names(frogs)[names(frogs) == "decimalLongitude"] <- "longitude"

frogs[,c("latitude", "longitude")]

# A tibble: 1,760 × 2
   latitude longitude
      <dbl>     <dbl>
 1    -41.2      146.
 2    -41.2      147.
 3    -42.9      148.
 4    -41.7      147.
 5    -43.1      147.
 6    -43.2      147.
 7    -41.2      147.
 8    -41.5      147.
 9    -41.0      145.
10    -42.8      148.
# ℹ 1,750 more rows
…
