ALA’s Data Cleaning Book - 6 Strings
…
# A tibble: 3 × 1
  scientificName          
  <chr>                   
1 Dendrolagus lumholtzi   
2 Dendrolagus             
3 Dendrolagus bennettianus

# detect names matching "lum"
tree_kangaroo |>
  filter(str_detect(scientificName, "lum")) |>
  select(scientificName)

# A tibble: 799 × 1
   scientificName       
   <chr>                
 1 Dendrolagus lumholtzi
 2 Dendrolagus lumholtzi
 3 Dendrolagus lumholtzi
 4 Dendrolagus lumholtzi
 5 Dendrolagus lumholtzi
 6 Dendrolagus lumholtzi
 7 Dendrolagus lumholtzi
 8 Dendrolagus lumholtzi
 9 Dendrolagus lumholtzi
10 Dendrolagus lumholtzi
# ℹ 789 more rows
…
[1] "specificus"

Use str_remove() to clean or extract names. Here, we remove the genus name from scientificName and save the result in a new species column.

tree_kangaroo |>
  mutate(
    species = ifelse(scientificName != "Dendrolagus",
                     str_remove(scientificName, "Dendrolagus "),
                     NA)
  ) |>
  select(scientificName, species)

# A tibble: 1,288 × 2
   scientificName           species     
   <chr>                    <chr>       
 1 Dendrolagus lumholtzi    lumholtzi   
 2 Dendrolagus lumholtzi    lumholtzi   
 3 Dendrolagus lumholtzi    lumholtzi   
 4 Dendrolagus lumholtzi    lumholtzi   
 5 Dendrolagus              <NA>        
 6 Dendrolagus bennettianus bennettianus
 7 Dendrolagus lumholtzi    lumholtzi   
 8 Dendrolagus lumholtzi    lumholtzi   
 9 Dendrolagus              <NA>        
10 Dendrolagus bennettianus bennettianus
# ℹ 1,278 more rows
…
1

[, 1] returns column 1 of str_locate() output

2

[, 2] returns column 2 of str_locate() output

# A tibble: 1,288 × 3
   scientificName           start   end
   <chr>                    <int> <int>
 1 Dendrolagus lumholtzi       13    15
 2 Dendrolagus lumholtzi       13    15
 3 Dendrolagus lumholtzi       13    15
 4 Dendrolagus lumholtzi       13    15
 5 Dendrolagus                 NA    NA
 6 Dendrolagus bennettianus    NA    NA
 7 Dendrolagus lumholtzi       13    15
 8 Dendrolagus lumholtzi       13    15
 9 Dendrolagus                 NA    NA
10 Dendrolagus bennettianus    NA    NA
# ℹ 1,278 more rows
…
Replace a matched pattern in a dataframe.

tree_kangaroo |>
  mutate(
    name_updated = str_replace(
1      scientificName, "^[A-Z][a-z]+", "new_name"
      )
  ) |>
  select(scientificName, name_updated)

1

This regex reads “Do not match all letters (capitalised or not) after word one.” We then this with “new_name”.

# A tibble: 1,288 × 2
   scientificName           name_updated         
   <chr>                    <chr>                
 1 Dendrolagus lumholtzi    new_name lumholtzi   
 2 Dendrolagus lumholtzi    new_name lumholtzi   
 3 Dendrolagus lumholtzi    new_name lumholtzi   
 4 Dendrolagus lumholtzi    new_name lumholtzi   
 5 Dendrolagus              new_name             
 6 Dendrolagus bennettianus new_name bennettianus
 7 Dendrolagus lumholtzi    new_name lumholtzi   
 8 Dendrolagus lumholtzi    new_name lumholtzi   
 9 Dendrolagus              new_name             
10 Dendrolagus bennettianus new_name bennettianus
# ℹ 1,278 more rows
…
[1] "G-n-s"               "sp-c--s"             "ZZG-n-s sp-c--s"    
[4] "D-fg-n-s d-fsp-c--s"

Replace a matched pattern in a dataframe.

tree_kangaroo$name_updated <- gsub(
  pattern = "Dendrolagus",
  replacement = "new_name",
  x = tree_kangaroo$scientificName
)

tree_kangaroo[,c("scientificName", "name_updated")]

# A tibble: 1,288 × 2
   scientificName           name_updated         
   <chr>                    <chr>                
 1 Dendrolagus lumholtzi    new_name lumholtzi   
 2 Dendrolagus lumholtzi    new_name lumholtzi   
 3 Dendrolagus lumholtzi    new_name lumholtzi   
 4 Dendrolagus lumholtzi    new_name lumholtzi   
 5 Dendrolagus              new_name             
 6 Dendrolagus bennettianus new_name bennettianus
 7 Dendrolagus lumholtzi    new_name lumholtzi   
 8 Dendrolagus lumholtzi    new_name lumholtzi   
 9 Dendrolagus              new_name             
10 Dendrolagus bennettianus new_name bennettianus
# ℹ 1,278 more rows
…
We can confirm that there are no upper case matches by subsetting unique values that have lower case letters to see what is going on. This shows us that Insecta is inputted entirely in lowercase.

str_subset(unique(bees$class), "[:lower:]")

[1] "insecta"

We can correct the lower case formatting as below, remember to check the fix before overwriting/removing the erroneous column(s).

bees |>
  mutate(class_corrected = str_to_sentence(class)) |>
  select(starts_with("class"))

# A tibble: 1,139 × 2
   class   class_corrected
   <chr>   <chr>          
 1 insecta Insecta        
 2 insecta Insecta        
 3 insecta Insecta        
 4 insecta Insecta        
 5 insecta Insecta        
 6 insecta Insecta        
 7 insecta Insecta        
 8 insecta Insecta        
 9 insecta Insecta        
10 insecta Insecta        
# ℹ 1,129 more rows
…
